Sample	aligned_reads	dedup_reads	dedup_reads_percent	dup_reads	dup_reads_percent
HepG2_BamH1_trimmed_R1	5298815.0	4433136.0	83.66	865679.0	16.34
HepaRG_trimmed_R1	2961500.0	2788984.0	94.17	172516.0	5.83
LIb7_S6_trimmed_R1	3161494.0	2954511.0	93.45	206983.0	6.55
LIb8_S7_trimmed_R1	1902988.0	1836348.0	96.5	66640.0	3.5
Lib10_S4_trimmed_R1	1528548.0	1341102.0	87.74	187446.0	12.26
Lib11_S2_trimmed_R1	6566816.0	5433271.0	82.74	1133545.0	17.26
Lib12_S5_trimmed_R1	1967243.0	1498926.0	76.19	468317.0	23.81
Lib1_S1_trimmed_R1	2566321.0	1838096.0	71.62	728225.0	28.38
Lib2_S2_trimmed_R1	2738256.0	2448993.0	89.44	289263.0	10.56
Lib4_S3_trimmed_R1	1650522.0	1562120.0	94.64	88402.0	5.36
Lib5_S4_trimmed_R1	2838371.0	2615776.0	92.16	222595.0	7.84
Lib6_S5_trimmed_R1	3754289.0	3635489.0	96.84	118800.0	3.16
Lib8_S2_trimmed_R1	1763403.0	315114.0	17.87	1448289.0	82.13
Lib9_S3_trimmed_R1	2961500.0	2788984.0	94.17	172516.0	5.83
MCF7_trimmed_R1	3568311.0	2896593.0	81.18	671718.0	18.82
NormalLiver_trimmed_R1	1714721.0	1655577.0	96.55	59144.0	3.45
