chrM	3001	9913
chrM	3002	9884
chrM	3003	9862
chrM	3004	9855
chrM	3005	9851
chrM	3006	9844
chrM	3007	9845
chrM	3008	9846
chrM	3009	9850
chrM	3010	9821
chrM	3011	9804
chrM	3012	9790
chrM	3013	9746
chrM	3014	9732
chrM	3015	9691
chrM	3016	9662
chrM	3017	9632
chrM	3018	9628
chrM	3019	9612
chrM	3020	9594
chrM	3021	9597
chrM	3022	9614
chrM	3023	9644
chrM	3024	9662
chrM	3025	9673
chrM	3026	9717
chrM	3027	9748
chrM	3028	9768
chrM	3029	9766
chrM	3030	9745
chrM	3031	9760
chrM	3032	9763
chrM	3033	9753
chrM	3034	9773
chrM	3035	9774
chrM	3036	9798
chrM	3037	9779
chrM	3038	9781
chrM	3039	9780
chrM	3040	9804
chrM	3041	9797
chrM	3042	9782
chrM	3043	9764
chrM	3044	9751
chrM	3045	9749
chrM	3046	9747
chrM	3047	9777
chrM	3048	9774
chrM	3049	9788
chrM	3050	9769
chrM	3051	9786
chrM	3052	9782
chrM	3053	9786
chrM	3054	9779
chrM	3055	9758
chrM	3056	9742
chrM	3057	9725
chrM	3058	9729
chrM	3059	9727
chrM	3060	9744
chrM	3061	9739
chrM	3062	9747
chrM	3063	9755
chrM	3064	9768
chrM	3065	9780
chrM	3066	9796
chrM	3067	9805
chrM	3068	9797
chrM	3069	9814
chrM	3070	9838
chrM	3071	9853
chrM	3072	9863
chrM	3073	9855
chrM	3074	9855
chrM	3075	9837
chrM	3076	9811
chrM	3077	9825
chrM	3078	9783
chrM	3079	9777
chrM	3080	9775
chrM	3081	9780
chrM	3082	9771
chrM	3083	9763
chrM	3084	9745
chrM	3085	9727
chrM	3086	9735
chrM	3087	9733
chrM	3088	9709
chrM	3089	9685
chrM	3090	9677
chrM	3091	9669
chrM	3092	9674
chrM	3093	9647
chrM	3094	9624
chrM	3095	9607
chrM	3096	9581
chrM	3097	9554
chrM	3098	9516
chrM	3099	9479
chrM	3100	9484
chrM	3101	9473
chrM	3102	9474
chrM	3103	9449
chrM	3104	9394
chrM	3105	9277
chrM	3106	9345
chrM	3107	669
chrM	3108	9255
chrM	3109	9315
chrM	3110	9293
chrM	3111	9304
chrM	3112	9281
chrM	3113	9244
chrM	3114	9241
chrM	3115	9246
chrM	3116	9239
chrM	3117	9229
chrM	3118	9226
chrM	3119	9244
chrM	3120	9242
chrM	3121	9235
chrM	3122	9232
chrM	3123	9210
chrM	3124	9226
chrM	3125	9221
chrM	3126	9243
chrM	3127	9241
chrM	3128	9221
chrM	3129	9224
chrM	3130	9233
chrM	3131	9259
chrM	3132	9276
chrM	3133	9299
chrM	3134	9345
chrM	3135	9368
chrM	3136	9415
chrM	3137	9450
chrM	3138	9505
chrM	3139	9536
chrM	3140	9593
chrM	3141	9639
chrM	3142	9687
chrM	3143	9724
chrM	3144	9766
chrM	3145	9799
chrM	3146	9852
chrM	3147	9891
chrM	3148	9910
chrM	3149	9939
chrM	3150	9979
chrM	3151	9997
chrM	3152	10015
chrM	3153	10055
chrM	3154	10074
chrM	3155	10097
chrM	3156	10112
chrM	3157	10100
chrM	3158	10093
chrM	3159	10085
chrM	3160	10058
chrM	3161	10043
chrM	3162	10034
chrM	3163	10039
chrM	3164	10043
chrM	3165	10071
chrM	3166	10083
chrM	3167	10099
chrM	3168	10094
chrM	3169	10104
chrM	3170	10082
chrM	3171	10066
chrM	3172	10067
chrM	3173	10094
chrM	3174	10085
chrM	3175	10099
chrM	3176	10100
chrM	3177	10130
chrM	3178	10128
chrM	3179	10123
chrM	3180	10106
chrM	3181	10091
chrM	3182	10099
chrM	3183	10099
chrM	3184	10115
chrM	3185	10098
chrM	3186	10120
chrM	3187	10142
chrM	3188	10174
chrM	3189	10192
chrM	3190	10202
chrM	3191	10228
chrM	3192	10258
chrM	3193	10268
chrM	3194	10274
chrM	3195	10295
chrM	3196	10293
chrM	3197	10284
chrM	3198	10276
chrM	3199	10295
chrM	3200	10288
chrM	3201	10291
chrM	3202	10275
chrM	3203	10247
chrM	3204	10239
chrM	3205	10190
chrM	3206	10155
chrM	3207	10121
chrM	3208	10083
chrM	3209	10050
chrM	3210	10039
chrM	3211	10023
chrM	3212	10022
chrM	3213	10001
chrM	3214	9992
chrM	3215	9990
chrM	3216	9976
chrM	3217	9942
chrM	3218	9931
chrM	3219	9943
chrM	3220	9947
chrM	3221	9959
chrM	3222	9965
chrM	3223	9994
chrM	3224	10018
chrM	3225	10064
chrM	3226	10071
chrM	3227	10096
chrM	3228	10090
chrM	3229	10108
chrM	3230	10135
chrM	3231	10133
chrM	3232	10174
chrM	3233	10199
chrM	3234	10231
chrM	3235	10239
chrM	3236	10238
chrM	3237	10253
chrM	3238	10258
chrM	3239	10288
chrM	3240	10333
chrM	3241	10355
chrM	3242	10386
chrM	3243	10415
chrM	3244	10437
chrM	3245	10473
chrM	3246	10503
chrM	3247	10533
chrM	3248	10556
chrM	3249	10587
chrM	3250	10625
chrM	3251	10650
chrM	3252	10678
chrM	3253	10707
chrM	3254	10747
chrM	3255	10795
chrM	3256	10850
chrM	3257	10899
chrM	3258	10941
chrM	3259	10964
chrM	3260	10997
chrM	3261	11025
chrM	3262	11051
chrM	3263	11094
chrM	3264	11128
chrM	3265	11138
chrM	3266	11144
chrM	3267	11132
chrM	3268	11134
chrM	3269	11106
chrM	3270	11088
chrM	3271	11066
chrM	3272	11063
chrM	3273	11071
chrM	3274	11050
chrM	3275	11025
chrM	3276	10976
chrM	3277	10944
chrM	3278	10907
chrM	3279	10883
chrM	3280	10842
chrM	3281	10787
chrM	3282	10770
chrM	3283	10772
chrM	3284	10792
chrM	3285	10780
chrM	3286	10803
chrM	3287	10799
chrM	3288	10745
chrM	3289	10727
chrM	3290	10678
chrM	3291	10739
chrM	3292	10727
chrM	3293	10738
chrM	3294	10752
chrM	3295	10754
chrM	3296	10746
chrM	3297	10742
chrM	3298	10734
chrM	3299	10724
chrM	3300	10703
chrM	3301	10701
chrM	3302	10683
chrM	3303	10668
chrM	3304	10649
chrM	3305	10635
chrM	3306	10625
chrM	3307	10611
chrM	3308	10578
chrM	3309	10569
chrM	3310	10552
chrM	3311	10531
chrM	3312	10500
chrM	3313	10464
chrM	3314	10442
chrM	3315	10431
chrM	3316	10409
chrM	3317	10380
chrM	3318	10322
chrM	3319	10259
chrM	3320	10246
chrM	3321	10219
chrM	3322	10192
chrM	3323	10151
chrM	3324	10137
chrM	3325	10117
chrM	3326	10076
chrM	3327	10036
chrM	3328	10011
chrM	3329	9962
chrM	3330	9938
chrM	3331	9911
chrM	3332	9906
chrM	3333	9914
chrM	3334	9870
chrM	3335	9831
chrM	3336	9813
chrM	3337	9798
chrM	3338	9800
chrM	3339	9781
chrM	3340	9779
chrM	3341	9800
chrM	3342	9824
chrM	3343	9852
chrM	3344	9887
chrM	3345	9917
chrM	3346	9920
chrM	3347	9911
chrM	3348	9907
chrM	3349	9929
chrM	3350	9906
chrM	3351	9917
chrM	3352	9913
chrM	3353	9910
chrM	3354	9902
chrM	3355	9901
chrM	3356	9923
chrM	3357	9924
chrM	3358	9917
chrM	3359	9900
chrM	3360	9885
chrM	3361	9880
chrM	3362	9867
chrM	3363	9886
chrM	3364	9900
chrM	3365	9901
chrM	3366	9900
chrM	3367	9886
chrM	3368	9887
chrM	3369	9875
chrM	3370	9876
chrM	3371	9864
chrM	3372	9863
chrM	3373	9862
chrM	3374	9853
chrM	3375	9837
chrM	3376	9804
chrM	3377	9771
chrM	3378	9765
chrM	3379	9762
chrM	3380	9745
chrM	3381	9700
chrM	3382	9693
chrM	3383	9687
chrM	3384	9676
chrM	3385	9659
chrM	3386	9657
chrM	3387	9648
chrM	3388	9661
chrM	3389	9638
chrM	3390	9575
chrM	3391	9566
chrM	3392	9532
chrM	3393	9512
chrM	3394	9471
chrM	3395	9412
chrM	3396	9402
chrM	3397	9369
chrM	3398	9359
chrM	3399	9318
chrM	3400	9296
chrM	3401	9279
chrM	3402	9268
chrM	3403	9243
chrM	3404	9246
chrM	3405	9241
chrM	3406	9230
chrM	3407	9211
chrM	3408	9186
chrM	3409	9140
chrM	3410	9104
chrM	3411	9104
chrM	3412	9092
chrM	3413	9071
chrM	3414	9063
chrM	3415	9028
chrM	3416	9023
chrM	3417	8987
chrM	3418	8958
chrM	3419	8931
chrM	3420	8922
chrM	3421	8858
chrM	3422	8829
chrM	3423	8811
chrM	3424	8785
chrM	3425	8746
chrM	3426	8716
chrM	3427	8681
chrM	3428	8654
chrM	3429	8625
chrM	3430	8604
chrM	3431	8584
chrM	3432	8550
chrM	3433	8539
chrM	3434	8541
chrM	3435	8546
chrM	3436	8538
chrM	3437	8550
chrM	3438	8570
chrM	3439	8598
chrM	3440	8623
chrM	3441	8618
chrM	3442	8630
chrM	3443	8623
chrM	3444	8618
chrM	3445	8623
chrM	3446	8600
chrM	3447	8597
chrM	3448	8591
chrM	3449	8554
chrM	3450	8540
chrM	3451	8520
chrM	3452	8514
chrM	3453	8532
chrM	3454	8534
chrM	3455	8549
chrM	3456	8568
chrM	3457	8591
chrM	3458	8631
chrM	3459	8661
chrM	3460	8689
chrM	3461	8702
chrM	3462	8703
chrM	3463	8662
chrM	3464	8639
chrM	3465	8631
chrM	3466	8612
chrM	3467	8599
chrM	3468	8582
chrM	3469	8590
chrM	3470	8583
chrM	3471	8579
chrM	3472	8594
chrM	3473	8609
chrM	3474	8632
chrM	3475	8636
chrM	3476	8624
chrM	3477	8599
chrM	3478	8539
chrM	3479	8508
chrM	3480	8474
chrM	3481	8463
chrM	3482	8449
chrM	3483	8435
chrM	3484	8424
chrM	3485	8416
chrM	3486	8410
chrM	3487	8412
chrM	3488	8331
chrM	3489	8263
chrM	3490	8209
chrM	3491	8141
chrM	3492	8112
chrM	3493	8102
chrM	3494	8085
chrM	3495	8063
chrM	3496	8039
chrM	3497	8039
chrM	3498	8018
chrM	3499	7978
chrM	3500	7974
chrM	3501	7923
chrM	3502	7916
chrM	3503	7903
chrM	3504	7840
chrM	3505	7808
chrM	3506	7801
chrM	3507	7764
chrM	3508	7723
chrM	3509	7705
chrM	3510	7678
chrM	3511	7652
chrM	3512	7642
chrM	3513	7631
chrM	3514	7605
chrM	3515	7571
chrM	3516	7551
chrM	3517	7522
chrM	3518	7474
chrM	3519	7458
chrM	3520	7400
chrM	3521	7360
chrM	3522	7338
chrM	3523	7245
chrM	3524	7214
chrM	3525	7171
chrM	3526	7123
chrM	3527	7092
chrM	3528	7064
chrM	3529	7019
chrM	3530	6980
chrM	3531	6905
chrM	3532	6898
chrM	3533	6878
chrM	3534	6823
chrM	3535	6668
chrM	3536	6590
chrM	3537	6561
chrM	3538	6522
chrM	3539	6472
chrM	3540	6437
chrM	3541	6412
chrM	3542	6373
chrM	3543	6367
chrM	3544	6350
chrM	3545	6349
chrM	3546	6308
chrM	3547	6258
chrM	3548	6250
chrM	3549	6243
chrM	3550	6207
chrM	3551	6202
chrM	3552	6174
chrM	3553	6181
chrM	3554	6155
chrM	3555	6135
chrM	3556	6133
chrM	3557	6077
chrM	3558	6037
chrM	3559	6012
chrM	3560	5847
chrM	3561	5682
chrM	3562	5572
chrM	3563	5167
chrM	3564	4892
chrM	3565	4666
chrM	3566	4466
chrM	3567	4360
chrM	3568	4281
chrM	3569	4239
chrM	3570	4224
chrM	3571	4191
chrM	3572	4152
chrM	3573	4162
chrM	3574	4167
chrM	3575	4176
chrM	3576	4183
chrM	3577	3749
chrM	3578	3695
chrM	3579	3686
chrM	3580	3616
chrM	3581	3622
chrM	3582	3615
chrM	3583	3581
chrM	3584	3583
chrM	3585	3591
chrM	3586	3606
chrM	3587	3635
chrM	3588	3676
chrM	3589	3683
chrM	3590	3415
chrM	3591	3462
chrM	3592	3423
chrM	3593	3333
chrM	3594	3389
chrM	3595	3413
chrM	3596	3442
chrM	3597	3495
chrM	3598	3544
chrM	3599	3557
chrM	3600	3596
chrM	3601	3624
chrM	3602	3671
chrM	3603	3707
chrM	3604	3745
chrM	3605	3736
chrM	3606	3782
chrM	3607	3817
chrM	3608	3840
chrM	3609	3856
chrM	3610	3887
chrM	3611	3912
chrM	3612	3983
chrM	3613	4067
chrM	3614	4084
chrM	3615	4160
chrM	3616	4184
chrM	3617	4232
chrM	3618	4280
chrM	3619	4345
chrM	3620	4389
chrM	3621	4437
chrM	3622	4473
chrM	3623	4524
chrM	3624	4569
chrM	3625	4623
chrM	3626	4658
chrM	3627	4712
chrM	3628	4757
chrM	3629	4793
chrM	3630	4860
chrM	3631	4924
chrM	3632	4969
chrM	3633	5010
chrM	3634	5080
chrM	3635	5151
chrM	3636	5210
chrM	3637	5279
chrM	3638	5319
chrM	3639	5384
chrM	3640	5470
chrM	3641	5536
chrM	3642	5607
chrM	3643	5622
chrM	3644	5685
chrM	3645	5764
chrM	3646	5817
chrM	3647	5857
chrM	3648	5908
chrM	3649	5952
chrM	3650	5987
chrM	3651	6030
chrM	3652	6058
chrM	3653	6115
chrM	3654	6170
chrM	3655	6215
chrM	3656	6255
chrM	3657	6334
chrM	3658	6395
chrM	3659	6463
chrM	3660	6522
chrM	3661	6569
chrM	3662	6632
chrM	3663	6702
chrM	3664	6777
chrM	3665	6860
chrM	3666	6945
chrM	3667	7014
chrM	3668	7070
chrM	3669	7156
chrM	3670	7246
chrM	3671	7315
chrM	3672	7395
chrM	3673	7474
chrM	3674	7548
chrM	3675	7638
chrM	3676	7715
chrM	3677	7781
chrM	3678	7830
chrM	3679	7892
chrM	3680	7953
chrM	3681	8017
chrM	3682	8092
chrM	3683	8150
chrM	3684	8203
chrM	3685	8249
chrM	3686	8294
chrM	3687	8349
chrM	3688	8412
chrM	3689	8453
chrM	3690	8515
chrM	3691	8563
chrM	3692	8610
chrM	3693	8690
chrM	3694	8749
chrM	3695	8819
chrM	3696	8889
chrM	3697	8965
chrM	3698	9047
chrM	3699	9118
chrM	3700	9193
chrM	3701	9283
chrM	3702	9361
chrM	3703	9429
chrM	3704	9493
chrM	3705	9581
chrM	3706	9666
chrM	3707	9743
chrM	3708	9794
chrM	3709	9868
chrM	3710	9927
chrM	3711	9971
chrM	3712	10029
chrM	3713	10099
chrM	3714	10173
chrM	3715	10227
chrM	3716	10259
chrM	3717	10313
chrM	3718	10383
chrM	3719	10436
chrM	3720	10481
chrM	3721	10536
chrM	3722	10573
chrM	3723	10585
chrM	3724	10628
chrM	3725	10643
chrM	3726	10679
chrM	3727	10714
chrM	3728	10733
chrM	3729	10726
chrM	3730	10717
chrM	3731	10723
chrM	3732	10704
chrM	3733	10694
chrM	3734	10709
chrM	3735	10718
chrM	3736	10730
chrM	3737	10750
chrM	3738	10791
chrM	3739	10822
chrM	3740	10844
chrM	3741	10893
chrM	3742	10902
chrM	3743	10918
chrM	3744	10938
chrM	3745	10975
chrM	3746	11008
chrM	3747	11016
chrM	3748	10999
chrM	3749	10997
chrM	3750	11017
chrM	3751	11030
chrM	3752	11055
chrM	3753	11101
chrM	3754	11128
chrM	3755	11154
chrM	3756	11155
chrM	3757	11213
chrM	3758	11227
chrM	3759	11231
chrM	3760	11259
chrM	3761	11267
chrM	3762	11286
chrM	3763	11309
chrM	3764	11320
chrM	3765	11333
chrM	3766	11321
chrM	3767	11352
chrM	3768	11354
chrM	3769	11353
chrM	3770	11328
chrM	3771	11283
chrM	3772	11274
chrM	3773	11254
chrM	3774	11234
chrM	3775	11199
chrM	3776	11162
chrM	3777	11146
chrM	3778	11118
chrM	3779	11085
chrM	3780	11057
chrM	3781	11033
chrM	3782	11029
chrM	3783	11014
chrM	3784	11015
chrM	3785	11001
chrM	3786	10993
chrM	3787	10982
chrM	3788	10958
chrM	3789	10936
chrM	3790	10919
chrM	3791	10908
chrM	3792	10870
chrM	3793	10862
chrM	3794	10858
chrM	3795	10850
chrM	3796	10847
chrM	3797	10833
chrM	3798	10817
chrM	3799	10801
chrM	3800	10744
chrM	3801	10699
chrM	3802	10694
chrM	3803	10676
chrM	3804	10665
chrM	3805	10612
chrM	3806	10590
chrM	3807	10584
chrM	3808	10556
chrM	3809	10541
chrM	3810	10493
chrM	3811	10482
chrM	3812	10444
chrM	3813	10422
chrM	3814	10418
chrM	3815	10403
chrM	3816	10390
chrM	3817	10388
chrM	3818	10387
chrM	3819	10383
chrM	3820	10388
chrM	3821	10403
chrM	3822	10416
chrM	3823	10403
chrM	3824	10390
chrM	3825	10399
chrM	3826	10386
chrM	3827	10368
chrM	3828	10331
chrM	3829	10308
chrM	3830	10279
chrM	3831	10248
chrM	3832	10221
chrM	3833	10222
chrM	3834	10213
chrM	3835	10187
chrM	3836	10151
chrM	3837	10121
chrM	3838	10075
chrM	3839	10056
chrM	3840	9978
chrM	3841	9926
chrM	3842	9886
chrM	3843	9854
chrM	3844	9819
chrM	3845	9792
chrM	3846	9778
chrM	3847	9736
chrM	3848	9686
chrM	3849	9679
chrM	3850	9661
chrM	3851	9672
chrM	3852	9653
chrM	3853	9628
chrM	3854	9606
chrM	3855	9558
chrM	3856	9534
chrM	3857	9514
chrM	3858	9490
chrM	3859	9495
chrM	3860	9471
chrM	3861	9436
chrM	3862	9412
chrM	3863	9414
chrM	3864	9408
chrM	3865	9397
chrM	3866	9407
chrM	3867	9407
chrM	3868	9399
chrM	3869	9397
chrM	3870	9383
chrM	3871	9372
chrM	3872	9373
chrM	3873	9368
chrM	3874	9350
chrM	3875	9327
chrM	3876	9304
chrM	3877	9331
chrM	3878	9363
chrM	3879	9350
chrM	3880	9372
chrM	3881	9374
chrM	3882	9372
chrM	3883	9384
chrM	3884	9404
chrM	3885	9396
chrM	3886	9390
chrM	3887	9383
chrM	3888	9366
chrM	3889	9324
chrM	3890	9277
chrM	3891	9244
chrM	3892	9206
chrM	3893	9187
chrM	3894	9179
chrM	3895	9169
chrM	3896	9169
chrM	3897	9156
chrM	3898	9116
chrM	3899	9093
chrM	3900	9091
chrM	3901	9071
chrM	3902	9058
chrM	3903	9063
chrM	3904	9085
chrM	3905	9078
chrM	3906	9114
chrM	3907	9157
chrM	3908	9184
chrM	3909	9203
chrM	3910	9136
chrM	3911	9176
chrM	3912	9189
chrM	3913	9204
chrM	3914	9229
chrM	3915	9259
chrM	3916	9294
chrM	3917	9341
chrM	3918	9402
chrM	3919	9450
chrM	3920	9530
chrM	3921	9595
chrM	3922	9681
chrM	3923	9754
chrM	3924	9819
chrM	3925	9879
chrM	3926	9903
chrM	3927	9916
chrM	3928	9958
chrM	3929	9992
chrM	3930	10041
chrM	3931	10078
chrM	3932	10126
chrM	3933	10164
chrM	3934	10189
chrM	3935	10208
chrM	3936	10234
chrM	3937	10243
chrM	3938	10283
chrM	3939	10319
chrM	3940	10353
chrM	3941	10404
chrM	3942	10421
chrM	3943	10423
chrM	3944	10436
chrM	3945	10455
chrM	3946	10458
chrM	3947	10473
chrM	3948	10487
chrM	3949	10531
chrM	3950	10553
chrM	3951	10571
chrM	3952	10589
chrM	3953	10622
chrM	3954	10616
chrM	3955	10610
chrM	3956	10603
chrM	3957	10423
chrM	3958	10375
chrM	3959	10358
chrM	3960	10355
chrM	3961	10351
chrM	3962	10342
chrM	3963	10346
chrM	3964	10356
chrM	3965	10391
chrM	3966	10435
chrM	3967	10455
chrM	3968	10467
chrM	3969	10495
chrM	3970	10550
chrM	3971	10571
chrM	3972	10597
chrM	3973	10691
chrM	3974	10735
chrM	3975	10789
chrM	3976	10818
chrM	3977	10839
chrM	3978	10902
chrM	3979	10920
chrM	3980	10955
chrM	3981	10998
chrM	3982	11037
chrM	3983	11083
chrM	3984	11091
chrM	3985	11104
chrM	3986	11156
chrM	3987	11216
chrM	3988	11255
chrM	3989	11321
chrM	3990	11379
chrM	3991	11443
chrM	3992	11522
chrM	3993	11562
chrM	3994	11615
chrM	3995	11678
chrM	3996	11752
chrM	3997	11808
chrM	3998	11818
chrM	3999	11884
chrM	4000	11962
chrM	4001	11995
chrM	4002	12025
chrM	4003	12096
chrM	4004	12142
chrM	4005	12184
chrM	4006	12223
chrM	4007	12241
chrM	4008	12263
chrM	4009	12310
chrM	4010	12339
chrM	4011	12374
chrM	4012	12415
chrM	4013	12419
chrM	4014	12452
chrM	4015	12449
chrM	4016	12478
chrM	4017	12494
chrM	4018	12492
chrM	4019	12492
chrM	4020	12507
chrM	4021	12517
chrM	4022	12510
chrM	4023	12505
chrM	4024	12539
chrM	4025	12566
chrM	4026	12579
chrM	4027	12609
chrM	4028	12626
chrM	4029	12631
chrM	4030	12632
chrM	4031	12624
chrM	4032	12639
chrM	4033	12652
chrM	4034	12636
chrM	4035	12634
chrM	4036	12662
chrM	4037	12651
chrM	4038	12648
chrM	4039	12633
chrM	4040	12628
chrM	4041	12606
chrM	4042	12586
chrM	4043	12573
chrM	4044	12561
chrM	4045	12549
chrM	4046	12526
chrM	4047	12513
chrM	4048	12474
chrM	4049	12434
chrM	4050	12381
chrM	4051	12300
chrM	4052	12251
chrM	4053	12179
chrM	4054	12108
chrM	4055	12058
chrM	4056	11998
chrM	4057	11926
chrM	4058	11866
chrM	4059	11824
chrM	4060	11783
chrM	4061	11752
chrM	4062	11724
chrM	4063	11704
chrM	4064	11714
chrM	4065	11699
chrM	4066	11690
chrM	4067	11694
chrM	4068	11718
chrM	4069	11756
chrM	4070	11795
chrM	4071	11841
chrM	4072	11837
chrM	4073	11836
chrM	4074	11802
chrM	4075	11773
chrM	4076	11780
chrM	4077	11777
chrM	4078	11768
chrM	4079	11766
chrM	4080	11760
chrM	4081	11721
chrM	4082	11692
chrM	4083	11649
chrM	4084	11587
chrM	4085	11554
chrM	4086	11528
chrM	4087	11495
chrM	4088	11456
chrM	4089	11449
chrM	4090	11410
chrM	4091	11385
chrM	4092	11356
chrM	4093	11332
chrM	4094	11314
chrM	4095	11291
chrM	4096	11280
chrM	4097	11267
chrM	4098	11225
chrM	4099	11192
chrM	4100	11117
chrM	4101	11059
chrM	4102	11043
chrM	4103	10962
chrM	4104	10885
chrM	4105	10826
chrM	4106	10758
chrM	4107	10689
chrM	4108	10601
chrM	4109	10593
chrM	4110	10555
chrM	4111	10544
chrM	4112	10514
chrM	4113	10448
chrM	4114	10431
chrM	4115	10398
chrM	4116	10368
chrM	4117	10317
chrM	4118	10260
chrM	4119	10234
chrM	4120	10204
chrM	4121	10117
chrM	4122	10037
chrM	4123	9982
chrM	4124	9926
chrM	4125	9884
chrM	4126	9848
chrM	4127	9787
chrM	4128	9740
chrM	4129	9673
chrM	4130	9662
chrM	4131	9603
chrM	4132	9556
chrM	4133	9549
chrM	4134	9484
chrM	4135	9424
chrM	4136	9397
chrM	4137	9376
chrM	4138	9308
chrM	4139	9306
chrM	4140	9266
chrM	4141	9244
chrM	4142	9207
chrM	4143	9174
chrM	4144	9143
chrM	4145	9175
chrM	4146	9180
chrM	4147	9171
chrM	4148	9179
chrM	4149	9185
chrM	4150	9167
chrM	4151	9131
chrM	4152	9162
chrM	4153	9144
chrM	4154	9144
chrM	4155	9138
chrM	4156	9131
chrM	4157	9128
chrM	4158	9109
chrM	4159	9117
chrM	4160	9115
chrM	4161	9105
chrM	4162	9069
chrM	4163	9045
chrM	4164	9046
chrM	4165	9040
chrM	4166	9030
chrM	4167	9011
chrM	4168	8994
chrM	4169	9001
chrM	4170	9014
chrM	4171	8988
chrM	4172	8991
chrM	4173	8984
chrM	4174	8982
chrM	4175	8966
chrM	4176	8981
chrM	4177	8989
chrM	4178	9005
chrM	4179	9015
chrM	4180	9026
chrM	4181	9053
chrM	4182	9082
chrM	4183	9133
chrM	4184	9181
chrM	4185	9222
chrM	4186	9259
chrM	4187	9272
chrM	4188	9290
chrM	4189	9299
chrM	4190	9319
chrM	4191	9321
chrM	4192	9335
chrM	4193	9334
chrM	4194	9350
chrM	4195	9360
chrM	4196	9347
chrM	4197	9341
chrM	4198	9325
chrM	4199	9289
chrM	4200	9272
chrM	4201	9290
chrM	4202	9284
chrM	4203	9204
chrM	4204	9131
chrM	4205	9116
chrM	4206	9069
chrM	4207	9075
chrM	4208	9054
chrM	4209	9043
chrM	4210	9041
chrM	4211	9014
chrM	4212	8981
chrM	4213	8966
chrM	4214	8941
chrM	4215	8924
chrM	4216	8902
chrM	4217	8883
chrM	4218	8886
chrM	4219	8848
chrM	4220	8852
chrM	4221	8853
chrM	4222	8838
chrM	4223	8825
chrM	4224	8794
chrM	4225	8755
chrM	4226	8734
chrM	4227	8715
chrM	4228	8707
chrM	4229	8684
chrM	4230	8659
chrM	4231	8630
chrM	4232	8601
chrM	4233	8588
chrM	4234	8578
chrM	4235	8554
chrM	4236	8533
chrM	4237	8508
chrM	4238	8519
chrM	4239	8519
chrM	4240	8519
chrM	4241	8526
chrM	4242	8498
chrM	4243	8417
chrM	4244	8335
chrM	4245	8268
chrM	4246	8048
chrM	4247	8029
chrM	4248	8025
chrM	4249	7999
chrM	4250	7974
chrM	4251	7962
chrM	4252	7959
chrM	4253	7958
chrM	4254	7947
chrM	4255	7959
chrM	4256	7963
chrM	4257	7991
chrM	4258	8017
chrM	4259	8026
chrM	4260	8041
chrM	4261	8039
chrM	4262	8028
chrM	4263	8049
chrM	4264	8073
chrM	4265	8101
chrM	4266	8111
chrM	4267	8130
chrM	4268	8154
chrM	4269	8188
chrM	4270	8255
chrM	4271	8321
chrM	4272	8385
chrM	4273	8447
chrM	4274	8497
chrM	4275	8549
chrM	4276	8573
chrM	4277	8578
chrM	4278	8590
chrM	4279	8620
chrM	4280	8622
chrM	4281	8637
chrM	4282	8637
chrM	4283	8665
chrM	4284	8670
chrM	4285	8702
chrM	4286	8730
chrM	4287	8759
chrM	4288	8754
chrM	4289	8787
chrM	4290	8787
chrM	4291	8810
chrM	4292	8832
chrM	4293	8865
chrM	4294	8856
chrM	4295	8862
chrM	4296	8901
chrM	4297	8925
chrM	4298	8989
chrM	4299	9045
chrM	4300	9097
chrM	4301	9139
chrM	4302	9173
chrM	4303	9232
chrM	4304	9245
chrM	4305	9260
chrM	4306	9288
chrM	4307	9296
chrM	4308	9280
chrM	4309	9290
chrM	4310	9315
chrM	4311	9320
chrM	4312	9355
chrM	4313	9364
chrM	4314	9369
chrM	4315	9399
chrM	4316	9395
chrM	4317	9361
chrM	4318	9338
chrM	4319	9340
chrM	4320	9341
chrM	4321	9354
chrM	4322	9375
chrM	4323	9401
chrM	4324	9416
chrM	4325	9429
chrM	4326	9466
chrM	4327	9476
chrM	4328	9499
chrM	4329	9506
chrM	4330	9496
chrM	4331	9541
chrM	4332	9563
chrM	4333	9596
chrM	4334	9635
chrM	4335	9659
chrM	4336	9697
chrM	4337	9722
chrM	4338	9782
chrM	4339	9824
chrM	4340	9854
chrM	4341	9887
chrM	4342	9909
chrM	4343	9915
chrM	4344	9933
chrM	4345	9991
chrM	4346	10040
chrM	4347	10063
chrM	4348	10099
chrM	4349	10131
chrM	4350	10160
chrM	4351	10203
chrM	4352	10228
chrM	4353	10268
chrM	4354	10278
chrM	4355	10302
chrM	4356	10330
chrM	4357	10374
chrM	4358	10424
chrM	4359	10465
chrM	4360	10488
chrM	4361	10519
chrM	4362	10535
chrM	4363	10551
chrM	4364	10601
chrM	4365	10659
chrM	4366	10713
chrM	4367	10737
chrM	4368	10762
chrM	4369	10780
chrM	4370	10811
chrM	4371	10824
chrM	4372	10846
chrM	4373	10862
chrM	4374	10894
chrM	4375	10904
chrM	4376	10941
chrM	4377	10978
chrM	4378	11014
chrM	4379	11055
chrM	4380	11081
chrM	4381	11108
chrM	4382	11128
chrM	4383	11149
chrM	4384	11173
chrM	4385	11208
chrM	4386	11230
chrM	4387	11236
chrM	4388	11250
chrM	4389	11261
chrM	4390	11262
chrM	4391	11259
chrM	4392	11223
chrM	4393	11203
chrM	4394	11193
chrM	4395	11165
chrM	4396	11147
chrM	4397	11152
chrM	4398	11149
chrM	4399	11110
chrM	4400	11093
chrM	4401	11107
chrM	4402	11104
chrM	4403	11064
chrM	4404	11036
chrM	4405	10992
chrM	4406	10981
chrM	4407	10966
chrM	4408	10954
chrM	4409	10949
chrM	4410	10965
chrM	4411	10980
chrM	4412	11039
chrM	4413	11064
chrM	4414	11062
chrM	4415	11052
chrM	4416	11065
chrM	4417	11064
chrM	4418	11051
chrM	4419	11033
chrM	4420	11031
chrM	4421	11023
chrM	4422	11021
chrM	4423	11014
chrM	4424	11014
chrM	4425	11053
chrM	4426	11072
chrM	4427	11078
chrM	4428	11094
chrM	4429	11112
chrM	4430	11145
chrM	4431	11146
chrM	4432	11161
chrM	4433	11098
chrM	4434	11075
chrM	4435	11048
chrM	4436	11036
chrM	4437	11005
chrM	4438	10980
chrM	4439	10974
chrM	4440	10983
chrM	4441	10984
chrM	4442	10988
chrM	4443	11026
chrM	4444	11050
chrM	4445	11069
chrM	4446	11102
chrM	4447	11107
chrM	4448	11119
chrM	4449	11088
chrM	4450	11087
chrM	4451	11070
chrM	4452	11093
chrM	4453	11095
chrM	4454	11088
chrM	4455	11086
chrM	4456	11070
chrM	4457	11089
chrM	4458	11085
chrM	4459	11063
chrM	4460	11062
chrM	4461	11096
chrM	4462	11098
chrM	4463	11123
chrM	4464	11124
chrM	4465	11133
chrM	4466	11145
chrM	4467	11148
chrM	4468	11164
chrM	4469	11160
chrM	4470	11206
chrM	4471	11173
chrM	4472	11159
chrM	4473	11138
chrM	4474	11118
chrM	4475	11109
chrM	4476	11093
chrM	4477	11074
chrM	4478	11078
chrM	4479	11092
chrM	4480	11066
chrM	4481	11060
chrM	4482	11105
chrM	4483	11143
chrM	4484	11177
chrM	4485	11200
chrM	4486	11230
chrM	4487	11253
chrM	4488	11266
chrM	4489	11301
chrM	4490	11317
chrM	4491	11330
chrM	4492	11355
chrM	4493	11388
chrM	4494	11408
chrM	4495	11437
chrM	4496	11495
chrM	4497	11510
chrM	4498	11529
chrM	4499	11549
chrM	4500	11552
chrM	4501	11571
chrM	4502	11566
chrM	4503	11591
chrM	4504	11637
chrM	4505	11641
chrM	4506	11650
chrM	4507	11670
chrM	4508	11693
chrM	4509	11670
chrM	4510	11667
chrM	4511	11692
chrM	4512	11707
chrM	4513	11710
chrM	4514	11701
chrM	4515	11715
chrM	4516	11730
chrM	4517	11744
chrM	4518	11760
chrM	4519	11770
chrM	4520	11812
chrM	4521	11816
chrM	4522	11831
chrM	4523	11850
chrM	4524	11865
chrM	4525	11884
chrM	4526	11939
chrM	4527	11966
chrM	4528	11982
chrM	4529	12008
chrM	4530	12036
chrM	4531	12075
chrM	4532	12077
chrM	4533	12096
chrM	4534	12094
chrM	4535	12104
chrM	4536	12140
chrM	4537	12166
chrM	4538	12184
chrM	4539	12207
chrM	4540	12234
chrM	4541	12238
chrM	4542	12257
chrM	4543	12275
chrM	4544	12286
chrM	4545	12264
chrM	4546	12231
chrM	4547	12265
chrM	4548	12249
chrM	4549	12233
chrM	4550	12237
chrM	4551	12267
chrM	4552	12266
chrM	4553	12262
chrM	4554	12268
chrM	4555	12234
chrM	4556	12233
chrM	4557	12229
chrM	4558	12202
chrM	4559	12205
chrM	4560	12188
chrM	4561	12168
chrM	4562	12165
chrM	4563	12179
chrM	4564	12198
chrM	4565	12213
chrM	4566	12271
chrM	4567	12289
chrM	4568	12381
chrM	4569	12424
chrM	4570	12463
chrM	4571	12511
chrM	4572	12545
chrM	4573	12572
chrM	4574	12632
chrM	4575	12675
chrM	4576	12705
chrM	4577	12757
chrM	4578	12775
chrM	4579	12801
chrM	4580	12806
chrM	4581	12806
chrM	4582	12802
chrM	4583	12819
chrM	4584	12853
chrM	4585	12866
chrM	4586	12880
chrM	4587	12848
chrM	4588	12851
chrM	4589	12843
chrM	4590	12868
chrM	4591	12858
chrM	4592	12853
chrM	4593	12854
chrM	4594	12875
chrM	4595	12896
chrM	4596	12904
chrM	4597	12924
chrM	4598	12929
chrM	4599	12953
chrM	4600	12957
chrM	4601	12946
chrM	4602	12967
chrM	4603	12975
chrM	4604	12954
chrM	4605	12919
chrM	4606	12929
chrM	4607	12939
chrM	4608	12950
chrM	4609	12958
chrM	4610	12955
chrM	4611	12969
chrM	4612	12975
chrM	4613	12923
chrM	4614	12903
chrM	4615	12898
chrM	4616	12859
chrM	4617	12829
chrM	4618	12821
chrM	4619	12812
chrM	4620	12836
chrM	4621	12845
chrM	4622	12834
chrM	4623	12854
chrM	4624	12877
chrM	4625	12897
chrM	4626	12904
chrM	4627	12904
chrM	4628	12892
chrM	4629	12882
chrM	4630	12840
chrM	4631	12822
chrM	4632	12856
chrM	4633	12872
chrM	4634	12900
chrM	4635	12950
chrM	4636	13007
chrM	4637	13055
chrM	4638	13103
chrM	4639	13118
chrM	4640	13161
chrM	4641	13197
chrM	4642	13241
chrM	4643	13262
chrM	4644	13279
chrM	4645	13306
chrM	4646	13340
chrM	4647	13327
chrM	4648	13352
chrM	4649	13343
chrM	4650	13339
chrM	4651	13364
chrM	4652	13407
chrM	4653	13409
chrM	4654	13421
chrM	4655	13426
chrM	4656	13463
chrM	4657	13459
chrM	4658	13464
chrM	4659	13485
chrM	4660	13536
chrM	4661	13539
chrM	4662	13585
chrM	4663	13635
chrM	4664	13658
chrM	4665	13684
chrM	4666	13703
chrM	4667	13698
chrM	4668	13687
chrM	4669	13704
chrM	4670	13673
chrM	4671	13587
chrM	4672	13516
chrM	4673	13455
chrM	4674	13412
chrM	4675	13388
chrM	4676	13393
chrM	4677	13354
chrM	4678	13332
chrM	4679	13327
chrM	4680	13351
chrM	4681	13338
chrM	4682	13301
chrM	4683	13285
chrM	4684	13250
chrM	4685	13228
chrM	4686	13176
chrM	4687	13156
chrM	4688	13112
chrM	4689	13101
chrM	4690	13135
chrM	4691	13147
chrM	4692	13171
chrM	4693	13175
chrM	4694	13186
chrM	4695	13184
chrM	4696	13196
chrM	4697	13228
chrM	4698	13222
chrM	4699	13216
chrM	4700	13241
chrM	4701	13184
chrM	4702	13141
chrM	4703	13107
chrM	4704	13066
chrM	4705	13059
chrM	4706	13044
chrM	4707	13044
chrM	4708	13051
chrM	4709	13036
chrM	4710	13033
chrM	4711	13041
chrM	4712	13052
chrM	4713	13033
chrM	4714	13040
chrM	4715	13055
chrM	4716	13089
chrM	4717	13093
chrM	4718	13103
chrM	4719	13133
chrM	4720	13148
chrM	4721	13180
chrM	4722	13220
chrM	4723	13232
chrM	4724	13259
chrM	4725	13234
chrM	4726	13281
chrM	4727	13305
chrM	4728	13336
chrM	4729	13339
chrM	4730	13332
chrM	4731	13299
chrM	4732	13285
chrM	4733	13294
chrM	4734	13292
chrM	4735	13317
chrM	4736	13338
chrM	4737	13343
chrM	4738	13361
chrM	4739	13382
chrM	4740	13392
chrM	4741	13427
chrM	4742	13460
chrM	4743	13471
chrM	4744	13486
chrM	4745	13469
chrM	4746	13497
chrM	4747	13498
chrM	4748	13513
chrM	4749	13522
chrM	4750	13537
chrM	4751	13563
chrM	4752	13601
chrM	4753	13638
chrM	4754	13615
chrM	4755	13583
chrM	4756	13578
chrM	4757	13583
chrM	4758	13586
chrM	4759	13580
chrM	4760	13549
chrM	4761	13546
chrM	4762	13544
chrM	4763	13545
chrM	4764	13542
chrM	4765	13565
chrM	4766	13551
chrM	4767	13530
chrM	4768	13529
chrM	4769	13510
chrM	4770	13480
chrM	4771	13472
chrM	4772	13472
chrM	4773	13438
chrM	4774	13464
chrM	4775	13491
chrM	4776	13473
chrM	4777	13457
chrM	4778	13448
chrM	4779	13463
chrM	4780	13503
chrM	4781	13485
chrM	4782	13511
chrM	4783	13516
chrM	4784	13514
chrM	4785	13514
chrM	4786	13498
chrM	4787	13465
chrM	4788	13505
chrM	4789	13500
chrM	4790	13488
chrM	4791	13451
chrM	4792	13446
chrM	4793	13424
chrM	4794	13393
chrM	4795	13344
chrM	4796	13300
chrM	4797	13268
chrM	4798	13223
chrM	4799	13193
chrM	4800	13119
chrM	4801	13080
chrM	4802	13071
chrM	4803	13051
chrM	4804	13009
chrM	4805	12977
chrM	4806	12950
chrM	4807	12950
chrM	4808	12947
chrM	4809	12966
chrM	4810	12951
chrM	4811	12927
chrM	4812	12896
chrM	4813	12892
chrM	4814	12877
chrM	4815	12847
chrM	4816	12844
chrM	4817	12839
chrM	4818	12820
chrM	4819	12817
chrM	4820	12809
chrM	4821	12831
chrM	4822	12825
chrM	4823	12809
chrM	4824	12806
chrM	4825	12799
chrM	4826	12762
chrM	4827	12710
chrM	4828	12670
chrM	4829	12608
chrM	4830	12535
chrM	4831	12461
chrM	4832	12422
chrM	4833	12381
chrM	4834	12353
chrM	4835	12304
chrM	4836	12284
chrM	4837	12245
chrM	4838	12215
chrM	4839	12222
chrM	4840	12174
chrM	4841	12159
chrM	4842	12170
chrM	4843	12156
chrM	4844	12127
chrM	4845	12117
chrM	4846	12113
chrM	4847	12090
chrM	4848	12068
chrM	4849	12063
chrM	4850	12081
chrM	4851	12082
chrM	4852	12058
chrM	4853	12002
chrM	4854	12012
chrM	4855	11935
chrM	4856	11903
chrM	4857	11910
chrM	4858	11873
chrM	4859	11857
chrM	4860	11865
chrM	4861	11834
chrM	4862	11825
chrM	4863	11811
chrM	4864	11809
chrM	4865	11774
chrM	4866	11776
chrM	4867	11771
chrM	4868	11759
chrM	4869	11752
chrM	4870	11688
chrM	4871	11650
chrM	4872	11617
chrM	4873	11610
chrM	4874	11587
chrM	4875	11596
chrM	4876	11563
chrM	4877	11554
chrM	4878	11558
chrM	4879	11538
chrM	4880	11526
chrM	4881	11520
chrM	4882	11515
chrM	4883	11525
chrM	4884	11517
chrM	4885	11517
chrM	4886	11523
chrM	4887	11497
chrM	4888	11489
chrM	4889	11448
chrM	4890	11461
chrM	4891	11471
chrM	4892	11484
chrM	4893	11418
chrM	4894	11378
chrM	4895	11329
chrM	4896	11323
chrM	4897	11303
chrM	4898	11295
chrM	4899	11241
chrM	4900	11057
chrM	4901	10955
chrM	4902	10888
chrM	4903	10760
chrM	4904	10735
chrM	4905	10721
chrM	4906	10709
chrM	4907	10700
chrM	4908	10706
chrM	4909	10717
chrM	4910	10696
chrM	4911	10718
chrM	4912	10734
chrM	4913	10744
chrM	4914	10751
chrM	4915	10682
chrM	4916	10642
chrM	4917	10636
chrM	4918	10638
chrM	4919	10656
chrM	4920	10575
chrM	4921	10499
chrM	4922	10419
chrM	4923	10355
chrM	4924	10335
chrM	4925	10316
chrM	4926	10326
chrM	4927	10300
chrM	4928	10307
chrM	4929	10338
chrM	4930	10357
chrM	4931	10385
chrM	4932	10392
chrM	4933	10405
chrM	4934	10439
chrM	4935	10472
chrM	4936	10496
chrM	4937	10543
chrM	4938	10595
chrM	4939	10630
chrM	4940	10683
chrM	4941	10736
chrM	4942	10780
chrM	4943	10798
chrM	4944	10831
chrM	4945	10870
chrM	4946	10899
chrM	4947	10925
chrM	4948	10945
chrM	4949	10963
chrM	4950	10975
chrM	4951	11001
chrM	4952	11012
chrM	4953	11025
chrM	4954	11036
chrM	4955	11055
chrM	4956	11068
chrM	4957	11084
chrM	4958	11137
chrM	4959	11177
chrM	4960	11219
chrM	4961	11291
chrM	4962	11382
chrM	4963	11474
chrM	4964	11569
chrM	4965	11675
chrM	4966	11770
chrM	4967	11851
chrM	4968	11925
chrM	4969	12029
chrM	4970	12102
chrM	4971	12176
chrM	4972	12269
chrM	4973	12337
chrM	4974	12415
chrM	4975	12503
chrM	4976	12585
chrM	4977	12639
chrM	4978	12706
chrM	4979	12775
chrM	4980	12825
chrM	4981	12852
chrM	4982	12878
chrM	4983	12879
chrM	4984	12890
chrM	4985	12905
chrM	4986	12885
chrM	4987	12876
chrM	4988	12861
chrM	4989	12832
chrM	4990	12858
chrM	4991	12883
chrM	4992	12933
chrM	4993	12976
chrM	4994	13007
chrM	4995	13061
chrM	4996	13101
chrM	4997	13164
chrM	4998	13208
chrM	4999	13237
chrM	5000	13292
chrM	5001	13335
chrM	5002	13371
chrM	5003	13390
chrM	5004	13440
chrM	5005	13464
chrM	5006	13525
chrM	5007	13553
chrM	5008	13553
chrM	5009	13551
chrM	5010	13537
chrM	5011	13542
chrM	5012	13532
chrM	5013	13552
chrM	5014	13574
chrM	5015	13588
chrM	5016	13620
chrM	5017	13650
chrM	5018	13653
chrM	5019	13653
chrM	5020	13682
chrM	5021	13722
chrM	5022	13736
chrM	5023	13756
chrM	5024	13782
chrM	5025	13810
chrM	5026	13842
chrM	5027	13855
chrM	5028	13881
chrM	5029	13877
chrM	5030	13920
chrM	5031	13936
chrM	5032	13976
chrM	5033	14013
chrM	5034	14057
chrM	5035	14124
chrM	5036	14187
chrM	5037	14259
chrM	5038	14314
chrM	5039	14374
chrM	5040	14394
chrM	5041	14441
chrM	5042	14465
chrM	5043	14487
chrM	5044	14520
chrM	5045	14575
chrM	5046	14598
chrM	5047	14617
chrM	5048	14682
chrM	5049	14730
chrM	5050	14756
chrM	5051	14783
chrM	5052	14841
chrM	5053	14891
chrM	5054	14919
chrM	5055	14955
chrM	5056	14989
chrM	5057	15047
chrM	5058	15076
chrM	5059	15075
chrM	5060	15089
chrM	5061	15111
chrM	5062	15140
chrM	5063	15177
chrM	5064	15177
chrM	5065	15227
chrM	5066	15242
chrM	5067	15245
chrM	5068	15283
chrM	5069	15301
chrM	5070	15320
chrM	5071	15367
chrM	5072	15403
chrM	5073	15431
chrM	5074	15482
chrM	5075	15550
chrM	5076	15601
chrM	5077	15630
chrM	5078	15684
chrM	5079	15712
chrM	5080	15740
chrM	5081	15753
chrM	5082	15783
chrM	5083	15812
chrM	5084	15857
chrM	5085	15904
chrM	5086	15922
chrM	5087	15967
chrM	5088	15963
chrM	5089	15993
chrM	5090	16041
chrM	5091	16045
chrM	5092	16060
chrM	5093	16035
chrM	5094	16029
chrM	5095	16020
chrM	5096	15992
chrM	5097	15963
chrM	5098	15933
chrM	5099	15900
chrM	5100	15873
chrM	5101	15844
chrM	5102	15823
chrM	5103	15827
chrM	5104	15792
chrM	5105	15780
chrM	5106	15752
chrM	5107	15752
chrM	5108	15711
chrM	5109	15673
chrM	5110	15634
chrM	5111	15578
chrM	5112	15555
chrM	5113	15542
chrM	5114	15507
chrM	5115	15481
chrM	5116	15493
chrM	5117	15492
chrM	5118	15509
chrM	5119	15486
chrM	5120	15470
chrM	5121	15491
chrM	5122	15486
chrM	5123	15472
chrM	5124	15495
chrM	5125	15464
chrM	5126	15452
chrM	5127	15397
chrM	5128	15366
chrM	5129	15337
chrM	5130	15293
chrM	5131	15235
chrM	5132	15177
chrM	5133	15128
chrM	5134	15077
chrM	5135	15045
chrM	5136	14981
chrM	5137	14934
chrM	5138	14900
chrM	5139	14848
chrM	5140	14829
chrM	5141	14802
chrM	5142	14785
chrM	5143	14774
chrM	5144	14768
chrM	5145	14767
chrM	5146	14770
chrM	5147	14743
chrM	5148	14715
chrM	5149	14717
chrM	5150	14690
chrM	5151	14677
chrM	5152	14653
chrM	5153	14629
chrM	5154	14643
chrM	5155	14607
chrM	5156	14567
chrM	5157	14570
chrM	5158	14523
chrM	5159	14503
chrM	5160	14525
chrM	5161	14528
chrM	5162	14518
chrM	5163	14522
chrM	5164	14494
chrM	5165	14504
chrM	5166	14476
chrM	5167	14471
chrM	5168	14458
chrM	5169	14384
chrM	5170	14326
chrM	5171	14309
chrM	5172	14252
chrM	5173	14210
chrM	5174	14190
chrM	5175	14174
chrM	5176	14150
chrM	5177	14186
chrM	5178	14190
chrM	5179	14175
chrM	5180	14131
chrM	5181	14113
chrM	5182	14117
chrM	5183	14047
chrM	5184	14007
chrM	5185	13977
chrM	5186	13971
chrM	5187	13954
chrM	5188	13895
chrM	5189	13859
chrM	5190	13847
chrM	5191	13839
chrM	5192	13786
chrM	5193	13740
chrM	5194	13708
chrM	5195	13662
chrM	5196	13577
chrM	5197	13415
chrM	5198	13252
chrM	5199	13148
chrM	5200	13045
chrM	5201	12958
chrM	5202	12906
chrM	5203	12813
chrM	5204	12757
chrM	5205	12711
chrM	5206	12622
chrM	5207	12438
chrM	5208	12287
chrM	5209	12090
chrM	5210	12060
chrM	5211	11950
chrM	5212	11868
chrM	5213	11781
chrM	5214	11681
chrM	5215	11611
chrM	5216	11573
chrM	5217	11517
chrM	5218	11469
chrM	5219	11392
chrM	5220	11343
chrM	5221	11244
chrM	5222	11174
chrM	5223	11132
chrM	5224	11072
chrM	5225	11020
chrM	5226	10973
chrM	5227	10931
chrM	5228	10921
chrM	5229	10890
chrM	5230	10864
chrM	5231	10853
chrM	5232	10848
chrM	5233	10802
chrM	5234	10790
chrM	5235	10778
chrM	5236	10758
chrM	5237	10743
chrM	5238	10739
chrM	5239	10735
chrM	5240	10735
chrM	5241	10774
chrM	5242	10817
chrM	5243	10851
chrM	5244	10852
chrM	5245	10901
chrM	5246	10949
chrM	5247	10965
chrM	5248	10890
chrM	5249	10896
chrM	5250	10887
chrM	5251	10876
chrM	5252	10866
chrM	5253	10872
chrM	5254	10879
chrM	5255	10890
chrM	5256	10841
chrM	5257	10808
chrM	5258	10812
chrM	5259	10794
chrM	5260	10796
chrM	5261	10835
chrM	5262	10892
chrM	5263	10967
chrM	5264	11028
chrM	5265	11029
chrM	5266	11043
chrM	5267	11102
chrM	5268	11175
chrM	5269	11210
chrM	5270	11270
chrM	5271	11295
chrM	5272	11340
chrM	5273	11396
chrM	5274	11427
chrM	5275	11482
chrM	5276	11559
chrM	5277	11610
chrM	5278	11686
chrM	5279	11773
chrM	5280	11847
chrM	5281	11920
chrM	5282	11938
chrM	5283	11929
chrM	5284	11938
chrM	5285	11939
chrM	5286	11960
chrM	5287	12036
chrM	5288	12088
chrM	5289	12078
chrM	5290	12056
chrM	5291	12105
chrM	5292	12126
chrM	5293	12153
chrM	5294	12186
chrM	5295	12237
chrM	5296	12277
chrM	5297	12324
chrM	5298	12349
chrM	5299	12377
chrM	5300	12429
chrM	5301	12447
chrM	5302	12472
chrM	5303	12488
chrM	5304	12501
chrM	5305	12498
chrM	5306	12508
chrM	5307	12497
chrM	5308	12518
chrM	5309	12513
chrM	5310	12503
chrM	5311	12493
chrM	5312	12537
chrM	5313	12477
chrM	5314	12442
chrM	5315	12413
chrM	5316	12414
chrM	5317	12393
chrM	5318	12367
chrM	5319	12326
chrM	5320	12320
chrM	5321	12299
chrM	5322	12260
chrM	5323	12251
chrM	5324	12251
chrM	5325	12220
chrM	5326	12192
chrM	5327	12185
chrM	5328	12202
chrM	5329	12205
chrM	5330	12210
chrM	5331	12221
chrM	5332	12202
chrM	5333	12207
chrM	5334	12220
chrM	5335	12225
chrM	5336	12245
chrM	5337	12234
chrM	5338	12242
chrM	5339	12269
chrM	5340	12267
chrM	5341	12292
chrM	5342	12307
chrM	5343	12283
chrM	5344	12304
chrM	5345	12328
chrM	5346	12351
chrM	5347	12394
chrM	5348	12432
chrM	5349	12463
chrM	5350	12484
chrM	5351	12501
chrM	5352	12511
chrM	5353	12508
chrM	5354	12526
chrM	5355	12535
chrM	5356	12523
chrM	5357	12535
chrM	5358	12537
chrM	5359	12533
chrM	5360	12525
chrM	5361	12509
chrM	5362	12497
chrM	5363	12492
chrM	5364	12469
chrM	5365	12451
chrM	5366	12424
chrM	5367	12412
chrM	5368	12411
chrM	5369	12379
chrM	5370	12352
chrM	5371	12335
chrM	5372	12266
chrM	5373	12207
chrM	5374	12157
chrM	5375	12121
chrM	5376	12065
chrM	5377	12017
chrM	5378	11933
chrM	5379	11883
chrM	5380	11786
chrM	5381	11687
chrM	5382	11644
chrM	5383	11537
chrM	5384	11487
chrM	5385	11441
chrM	5386	11413
chrM	5387	11421
chrM	5388	11314
chrM	5389	11258
chrM	5390	11228
chrM	5391	11212
chrM	5392	11206
chrM	5393	11147
chrM	5394	11113
chrM	5395	11122
chrM	5396	11136
chrM	5397	11090
chrM	5398	11073
chrM	5399	11059
chrM	5400	10980
chrM	5401	10939
chrM	5402	10903
chrM	5403	10859
chrM	5404	10849
chrM	5405	10850
chrM	5406	10837
chrM	5407	10831
chrM	5408	10788
chrM	5409	10745
chrM	5410	10702
chrM	5411	10638
chrM	5412	10610
chrM	5413	10572
chrM	5414	10545
chrM	5415	10520
chrM	5416	10484
chrM	5417	10454
chrM	5418	10456
chrM	5419	10431
chrM	5420	10447
chrM	5421	10432
chrM	5422	10404
chrM	5423	10370
chrM	5424	10356
chrM	5425	10309
chrM	5426	10272
chrM	5427	10248
chrM	5428	10239
chrM	5429	10197
chrM	5430	10131
chrM	5431	10087
chrM	5432	10040
chrM	5433	10008
chrM	5434	9944
chrM	5435	9903
chrM	5436	9877
chrM	5437	9865
chrM	5438	9833
chrM	5439	9812
chrM	5440	9781
chrM	5441	9714
chrM	5442	9687
chrM	5443	9689
chrM	5444	9671
chrM	5445	9625
chrM	5446	9590
chrM	5447	9544
chrM	5448	9511
chrM	5449	9487
chrM	5450	9441
chrM	5451	9418
chrM	5452	9401
chrM	5453	9364
chrM	5454	9358
chrM	5455	9321
chrM	5456	9300
chrM	5457	9274
chrM	5458	9244
chrM	5459	9235
chrM	5460	9197
chrM	5461	9186
chrM	5462	9158
chrM	5463	9122
chrM	5464	9070
chrM	5465	9063
chrM	5466	9035
chrM	5467	9003
chrM	5468	8964
chrM	5469	8929
chrM	5470	8914
chrM	5471	8864
chrM	5472	8824
chrM	5473	8766
chrM	5474	8700
chrM	5475	8660
chrM	5476	8588
chrM	5477	8556
chrM	5478	8499
chrM	5479	8448
chrM	5480	8414
chrM	5481	8376
chrM	5482	8321
chrM	5483	8236
chrM	5484	8174
chrM	5485	8104
chrM	5486	8114
chrM	5487	8087
chrM	5488	8075
chrM	5489	8061
chrM	5490	8058
chrM	5491	8091
chrM	5492	8059
chrM	5493	8021
chrM	5494	8020
chrM	5495	8009
chrM	5496	8006
chrM	5497	8031
chrM	5498	8060
chrM	5499	8094
chrM	5500	8089
chrM	5501	8125
chrM	5502	8162
chrM	5503	8183
chrM	5504	8212
chrM	5505	8215
chrM	5506	8250
chrM	5507	8298
chrM	5508	8301
chrM	5509	8336
chrM	5510	8372
chrM	5511	8381
chrM	5512	8422
chrM	5513	8436
chrM	5514	8469
chrM	5515	8527
chrM	5516	8563
chrM	5517	8602
chrM	5518	8660
chrM	5519	8696
chrM	5520	8734
chrM	5521	8740
chrM	5522	8730
chrM	5523	8715
chrM	5524	8726
chrM	5525	8719
chrM	5526	8734
chrM	5527	8742
chrM	5528	8730
chrM	5529	8731
chrM	5530	8689
chrM	5531	8663
chrM	5532	8636
chrM	5533	8608
chrM	5534	8601
chrM	5535	8590
chrM	5536	8490
chrM	5537	8449
chrM	5538	8406
chrM	5539	8373
chrM	5540	8335
chrM	5541	8325
chrM	5542	8302
chrM	5543	8282
chrM	5544	8276
chrM	5545	8289
chrM	5546	8269
chrM	5547	8231
chrM	5548	8206
chrM	5549	8189
chrM	5550	8206
chrM	5551	8205
chrM	5552	8210
chrM	5553	8205
chrM	5554	8210
chrM	5555	8206
chrM	5556	8208
chrM	5557	8218
chrM	5558	8227
chrM	5559	8230
chrM	5560	8254
chrM	5561	8250
chrM	5562	8257
chrM	5563	8248
chrM	5564	8256
chrM	5565	8267
chrM	5566	8287
chrM	5567	8296
chrM	5568	8330
chrM	5569	8380
chrM	5570	8431
chrM	5571	8438
chrM	5572	8452
chrM	5573	8476
chrM	5574	8486
chrM	5575	8490
chrM	5576	8521
chrM	5577	8529
chrM	5578	8549
chrM	5579	8562
chrM	5580	8594
chrM	5581	8629
chrM	5582	8651
chrM	5583	8691
chrM	5584	8724
chrM	5585	8771
chrM	5586	8797
chrM	5587	8843
chrM	5588	8882
chrM	5589	8916
chrM	5590	8945
chrM	5591	8985
chrM	5592	9004
chrM	5593	9033
chrM	5594	9068
chrM	5595	9122
chrM	5596	9181
chrM	5597	9204
chrM	5598	9241
chrM	5599	9291
chrM	5600	9312
chrM	5601	9315
chrM	5602	9334
chrM	5603	9345
chrM	5604	9357
chrM	5605	9368
chrM	5606	9400
chrM	5607	9428
chrM	5608	9439
chrM	5609	9475
chrM	5610	9496
chrM	5611	9514
chrM	5612	9533
chrM	5613	9569
chrM	5614	9601
chrM	5615	9625
chrM	5616	9642
chrM	5617	9680
chrM	5618	9708
chrM	5619	9731
chrM	5620	9755
chrM	5621	9783
chrM	5622	9810
chrM	5623	9827
chrM	5624	9845
chrM	5625	9846
chrM	5626	9824
chrM	5627	9826
chrM	5628	9809
chrM	5629	9807
chrM	5630	9811
chrM	5631	9801
chrM	5632	9804
chrM	5633	9787
chrM	5634	9788
chrM	5635	9787
chrM	5636	9764
chrM	5637	9719
chrM	5638	9713
chrM	5639	9656
chrM	5640	9655
chrM	5641	9616
chrM	5642	9587
chrM	5643	9561
chrM	5644	9534
chrM	5645	9517
chrM	5646	9503
chrM	5647	9478
chrM	5648	9459
chrM	5649	9430
chrM	5650	9387
chrM	5651	9370
chrM	5652	9333
chrM	5653	9319
chrM	5654	9302
chrM	5655	9303
chrM	5656	9308
chrM	5657	9305
chrM	5658	9286
chrM	5659	9277
chrM	5660	9264
chrM	5661	9246
chrM	5662	9236
chrM	5663	9225
chrM	5664	9222
chrM	5665	9220
chrM	5666	9233
chrM	5667	9220
chrM	5668	9221
chrM	5669	9226
chrM	5670	9241
chrM	5671	9259
chrM	5672	9262
chrM	5673	9261
chrM	5674	9266
chrM	5675	9257
chrM	5676	9259
chrM	5677	9253
chrM	5678	9243
chrM	5679	9253
chrM	5680	9265
chrM	5681	9269
chrM	5682	9307
chrM	5683	9313
chrM	5684	9353
chrM	5685	9352
chrM	5686	9374
chrM	5687	9372
chrM	5688	9356
chrM	5689	9349
chrM	5690	9355
chrM	5691	9344
chrM	5692	9293
chrM	5693	9270
chrM	5694	9262
chrM	5695	9225
chrM	5696	9214
chrM	5697	9209
chrM	5698	9192
chrM	5699	9183
chrM	5700	9183
chrM	5701	9155
chrM	5702	9153
chrM	5703	9113
chrM	5704	9076
chrM	5705	9031
chrM	5706	9012
chrM	5707	8994
chrM	5708	8988
chrM	5709	8961
chrM	5710	8943
chrM	5711	8936
chrM	5712	8943
chrM	5713	8950
chrM	5714	8942
chrM	5715	8927
chrM	5716	8907
chrM	5717	8886
chrM	5718	8856
chrM	5719	8853
chrM	5720	8836
chrM	5721	8833
chrM	5722	8813
chrM	5723	8810
chrM	5724	8786
chrM	5725	8760
chrM	5726	8737
chrM	5727	8733
chrM	5728	8720
chrM	5729	8687
chrM	5730	8655
chrM	5731	8636
chrM	5732	8632
chrM	5733	8626
chrM	5734	8610
chrM	5735	8604
chrM	5736	8596
chrM	5737	8605
chrM	5738	8614
chrM	5739	8615
chrM	5740	8636
chrM	5741	8647
chrM	5742	8681
chrM	5743	8709
chrM	5744	8545
chrM	5745	8727
chrM	5746	8751
chrM	5747	8773
chrM	5748	8787
chrM	5749	8775
chrM	5750	8775
chrM	5751	8782
chrM	5752	8776
chrM	5753	8798
chrM	5754	8814
chrM	5755	8845
chrM	5756	8857
chrM	5757	8879
chrM	5758	8909
chrM	5759	8937
chrM	5760	8941
chrM	5761	8954
chrM	5762	8981
chrM	5763	8990
chrM	5764	9006
chrM	5765	9052
chrM	5766	9092
chrM	5767	9130
chrM	5768	9182
chrM	5769	9208
chrM	5770	9227
chrM	5771	9245
chrM	5772	9295
chrM	5773	9351
chrM	5774	9384
chrM	5775	9433
chrM	5776	9475
chrM	5777	9530
chrM	5778	9559
chrM	5779	9595
chrM	5780	9596
chrM	5781	9578
chrM	5782	9606
chrM	5783	9656
chrM	5784	9661
chrM	5785	9706
chrM	5786	9746
chrM	5787	9770
chrM	5788	9807
chrM	5789	9830
chrM	5790	9854
chrM	5791	9876
chrM	5792	9916
chrM	5793	9962
chrM	5794	9981
chrM	5795	10018
chrM	5796	10037
chrM	5797	10058
chrM	5798	10072
chrM	5799	10077
chrM	5800	10079
chrM	5801	10080
chrM	5802	10087
chrM	5803	10100
chrM	5804	10091
chrM	5805	10087
chrM	5806	10098
chrM	5807	10072
chrM	5808	10064
chrM	5809	10041
chrM	5810	10020
chrM	5811	10003
chrM	5812	9991
chrM	5813	9988
chrM	5814	9987
chrM	5815	9997
chrM	5816	10036
chrM	5817	10059
chrM	5818	10058
chrM	5819	10050
chrM	5820	10053
chrM	5821	10081
chrM	5822	10121
chrM	5823	10166
chrM	5824	10202
chrM	5825	10232
chrM	5826	10266
chrM	5827	10311
chrM	5828	10360
chrM	5829	10405
chrM	5830	10428
chrM	5831	10461
chrM	5832	10488
chrM	5833	10523
chrM	5834	10548
chrM	5835	10561
chrM	5836	10589
chrM	5837	10605
chrM	5838	10642
chrM	5839	10686
chrM	5840	10729
chrM	5841	10730
chrM	5842	10749
chrM	5843	10755
chrM	5844	10767
chrM	5845	10786
chrM	5846	10806
chrM	5847	10793
chrM	5848	10794
chrM	5849	10826
chrM	5850	10823
chrM	5851	10837
chrM	5852	10854
chrM	5853	10881
chrM	5854	10918
chrM	5855	10942
chrM	5856	10977
chrM	5857	11010
chrM	5858	11008
chrM	5859	11044
chrM	5860	11066
chrM	5861	11092
chrM	5862	11107
chrM	5863	11126
chrM	5864	11131
chrM	5865	11142
chrM	5866	11163
chrM	5867	11185
chrM	5868	11213
chrM	5869	11236
chrM	5870	11255
chrM	5871	11270
chrM	5872	11258
chrM	5873	11242
chrM	5874	11236
chrM	5875	11207
chrM	5876	11198
chrM	5877	11162
chrM	5878	11128
chrM	5879	11124
chrM	5880	11115
chrM	5881	11117
chrM	5882	11092
chrM	5883	11082
chrM	5884	11069
chrM	5885	11029
chrM	5886	10999
chrM	5887	10961
chrM	5888	10900
chrM	5889	10836
chrM	5890	10777
chrM	5891	10719
chrM	5892	10669
chrM	5893	10610
chrM	5894	10564
chrM	5895	10531
chrM	5896	10502
chrM	5897	10467
chrM	5898	10461
chrM	5899	10439
chrM	5900	10415
chrM	5901	10422
chrM	5902	10390
chrM	5903	10335
chrM	5904	10319
chrM	5905	10301
chrM	5906	10279
chrM	5907	10236
chrM	5908	10195
chrM	5909	10182
chrM	5910	10143
chrM	5911	10126
chrM	5912	10103
chrM	5913	10112
chrM	5914	10116
chrM	5915	10120
chrM	5916	10126
chrM	5917	10109
chrM	5918	10062
chrM	5919	10052
chrM	5920	10072
chrM	5921	10064
chrM	5922	10071
chrM	5923	10034
chrM	5924	10015
chrM	5925	10036
chrM	5926	10038
chrM	5927	10037
chrM	5928	10019
chrM	5929	10008
chrM	5930	9983
chrM	5931	9966
chrM	5932	9961
chrM	5933	9942
chrM	5934	9924
chrM	5935	9917
chrM	5936	9897
chrM	5937	9893
chrM	5938	9874
chrM	5939	9879
chrM	5940	9869
chrM	5941	9842
chrM	5942	9862
chrM	5943	9867
chrM	5944	9876
chrM	5945	9897
chrM	5946	9904
chrM	5947	9910
chrM	5948	9925
chrM	5949	9962
chrM	5950	9980
chrM	5951	9980
chrM	5952	9966
chrM	5953	9971
chrM	5954	9997
chrM	5955	10009
chrM	5956	9999
chrM	5957	9967
chrM	5958	9955
chrM	5959	9929
chrM	5960	9933
chrM	5961	9923
chrM	5962	9914
chrM	5963	9886
chrM	5964	9884
chrM	5965	9889
chrM	5966	9897
chrM	5967	9904
chrM	5968	9884
chrM	5969	9878
chrM	5970	9871
chrM	5971	9866
chrM	5972	9868
chrM	5973	9858
chrM	5974	9842
chrM	5975	9821
chrM	5976	9843
chrM	5977	9873
chrM	5978	9876
chrM	5979	9889
chrM	5980	9904
chrM	5981	9918
chrM	5982	9927
chrM	5983	9933
chrM	5984	9929
chrM	5985	9923
chrM	5986	9908
chrM	5987	9904
chrM	5988	9900
chrM	5989	9924
chrM	5990	9917
chrM	5991	9931
chrM	5992	9918
chrM	5993	9924
chrM	5994	9904
chrM	5995	9900
chrM	5996	9881
chrM	5997	9853
chrM	5998	9858
chrM	5999	9840
chrM	6000	9834
