chrM	3001	10224
chrM	3002	10140
chrM	3003	10020
chrM	3004	9919
chrM	3005	9893
chrM	3006	9836
chrM	3007	9843
chrM	3008	9855
chrM	3009	9852
chrM	3010	9883
chrM	3011	9822
chrM	3012	9750
chrM	3013	9695
chrM	3014	9598
chrM	3015	9626
chrM	3016	9589
chrM	3017	9577
chrM	3018	9503
chrM	3019	9540
chrM	3020	9597
chrM	3021	9599
chrM	3022	9584
chrM	3023	9581
chrM	3024	9592
chrM	3025	9598
chrM	3026	9550
chrM	3027	9642
chrM	3028	9691
chrM	3029	9679
chrM	3030	9525
chrM	3031	9507
chrM	3032	9558
chrM	3033	9605
chrM	3034	9629
chrM	3035	9613
chrM	3036	9625
chrM	3037	9493
chrM	3038	9485
chrM	3039	9497
chrM	3040	9487
chrM	3041	9524
chrM	3042	9518
chrM	3043	9532
chrM	3044	9514
chrM	3045	9451
chrM	3046	9442
chrM	3047	9419
chrM	3048	9403
chrM	3049	9380
chrM	3050	9384
chrM	3051	9306
chrM	3052	9233
chrM	3053	9167
chrM	3054	9253
chrM	3055	9266
chrM	3056	9245
chrM	3057	9218
chrM	3058	9093
chrM	3059	9021
chrM	3060	8996
chrM	3061	8940
chrM	3062	8920
chrM	3063	8923
chrM	3064	8910
chrM	3065	8873
chrM	3066	8834
chrM	3067	8859
chrM	3068	8833
chrM	3069	8830
chrM	3070	8856
chrM	3071	8913
chrM	3072	8929
chrM	3073	8995
chrM	3074	8949
chrM	3075	8869
chrM	3076	8821
chrM	3077	8766
chrM	3078	8767
chrM	3079	8828
chrM	3080	8769
chrM	3081	8676
chrM	3082	8635
chrM	3083	8650
chrM	3084	8711
chrM	3085	8630
chrM	3086	8625
chrM	3087	8625
chrM	3088	8625
chrM	3089	8656
chrM	3090	8594
chrM	3091	8591
chrM	3092	8626
chrM	3093	8707
chrM	3094	8662
chrM	3095	8642
chrM	3096	8583
chrM	3097	8588
chrM	3098	8637
chrM	3099	8644
chrM	3100	8616
chrM	3101	8607
chrM	3102	8676
chrM	3103	8680
chrM	3104	8677
chrM	3105	8636
chrM	3106	8677
chrM	3107	665
chrM	3108	8407
chrM	3109	8501
chrM	3110	8549
chrM	3111	8586
chrM	3112	8551
chrM	3113	8381
chrM	3114	8344
chrM	3115	8338
chrM	3116	8313
chrM	3117	8179
chrM	3118	8134
chrM	3119	8136
chrM	3120	8165
chrM	3121	8173
chrM	3122	8142
chrM	3123	8131
chrM	3124	8116
chrM	3125	8122
chrM	3126	8156
chrM	3127	8163
chrM	3128	8190
chrM	3129	8157
chrM	3130	8207
chrM	3131	8236
chrM	3132	8326
chrM	3133	8338
chrM	3134	8362
chrM	3135	8300
chrM	3136	8352
chrM	3137	8474
chrM	3138	8545
chrM	3139	8574
chrM	3140	8580
chrM	3141	8563
chrM	3142	8567
chrM	3143	8550
chrM	3144	8526
chrM	3145	8552
chrM	3146	8515
chrM	3147	8547
chrM	3148	8556
chrM	3149	8571
chrM	3150	8614
chrM	3151	8611
chrM	3152	8641
chrM	3153	8642
chrM	3154	8663
chrM	3155	8641
chrM	3156	8580
chrM	3157	8519
chrM	3158	8487
chrM	3159	8482
chrM	3160	8448
chrM	3161	8431
chrM	3162	8427
chrM	3163	8329
chrM	3164	8264
chrM	3165	8264
chrM	3166	8318
chrM	3167	8361
chrM	3168	8346
chrM	3169	8257
chrM	3170	8319
chrM	3171	8386
chrM	3172	8377
chrM	3173	8388
chrM	3174	8350
chrM	3175	8317
chrM	3176	8326
chrM	3177	8305
chrM	3178	8299
chrM	3179	8311
chrM	3180	8326
chrM	3181	8373
chrM	3182	8373
chrM	3183	8432
chrM	3184	8437
chrM	3185	8454
chrM	3186	8459
chrM	3187	8482
chrM	3188	8480
chrM	3189	8502
chrM	3190	8449
chrM	3191	8450
chrM	3192	8541
chrM	3193	8535
chrM	3194	8525
chrM	3195	8540
chrM	3196	8534
chrM	3197	8557
chrM	3198	8575
chrM	3199	8542
chrM	3200	8620
chrM	3201	8693
chrM	3202	8694
chrM	3203	8696
chrM	3204	8732
chrM	3205	8696
chrM	3206	8670
chrM	3207	8700
chrM	3208	8724
chrM	3209	8652
chrM	3210	8638
chrM	3211	8671
chrM	3212	8771
chrM	3213	8868
chrM	3214	8859
chrM	3215	8820
chrM	3216	8820
chrM	3217	8931
chrM	3218	8991
chrM	3219	9017
chrM	3220	8925
chrM	3221	8942
chrM	3222	8973
chrM	3223	9024
chrM	3224	9111
chrM	3225	9141
chrM	3226	9218
chrM	3227	9316
chrM	3228	9316
chrM	3229	9256
chrM	3230	9292
chrM	3231	9406
chrM	3232	9452
chrM	3233	9492
chrM	3234	9433
chrM	3235	9488
chrM	3236	9476
chrM	3237	9465
chrM	3238	9351
chrM	3239	9322
chrM	3240	9257
chrM	3241	9252
chrM	3242	9296
chrM	3243	9332
chrM	3244	9333
chrM	3245	9286
chrM	3246	9342
chrM	3247	9380
chrM	3248	9414
chrM	3249	9400
chrM	3250	9398
chrM	3251	9484
chrM	3252	9519
chrM	3253	9589
chrM	3254	9598
chrM	3255	9598
chrM	3256	9594
chrM	3257	9633
chrM	3258	9699
chrM	3259	9781
chrM	3260	9822
chrM	3261	9836
chrM	3262	9912
chrM	3263	9921
chrM	3264	9928
chrM	3265	9902
chrM	3266	9877
chrM	3267	9855
chrM	3268	9866
chrM	3269	9839
chrM	3270	9814
chrM	3271	9755
chrM	3272	9642
chrM	3273	9605
chrM	3274	9586
chrM	3275	9588
chrM	3276	9677
chrM	3277	9691
chrM	3278	9725
chrM	3279	9826
chrM	3280	9851
chrM	3281	9871
chrM	3282	9924
chrM	3283	9948
chrM	3284	9921
chrM	3285	9883
chrM	3286	9873
chrM	3287	9885
chrM	3288	9869
chrM	3289	9856
chrM	3290	9804
chrM	3291	9989
chrM	3292	10102
chrM	3293	10145
chrM	3294	10109
chrM	3295	10102
chrM	3296	10093
chrM	3297	10099
chrM	3298	10146
chrM	3299	10145
chrM	3300	10133
chrM	3301	10045
chrM	3302	9979
chrM	3303	9907
chrM	3304	9919
chrM	3305	9839
chrM	3306	9759
chrM	3307	9784
chrM	3308	9799
chrM	3309	9978
chrM	3310	10019
chrM	3311	10049
chrM	3312	10127
chrM	3313	10125
chrM	3314	10133
chrM	3315	10186
chrM	3316	10174
chrM	3317	10165
chrM	3318	10088
chrM	3319	10059
chrM	3320	10043
chrM	3321	10015
chrM	3322	10005
chrM	3323	10049
chrM	3324	10027
chrM	3325	10009
chrM	3326	9983
chrM	3327	9870
chrM	3328	9861
chrM	3329	9913
chrM	3330	9908
chrM	3331	9896
chrM	3332	9906
chrM	3333	9896
chrM	3334	9911
chrM	3335	9854
chrM	3336	9857
chrM	3337	9837
chrM	3338	9807
chrM	3339	9766
chrM	3340	9744
chrM	3341	9711
chrM	3342	9648
chrM	3343	9647
chrM	3344	9704
chrM	3345	9732
chrM	3346	9714
chrM	3347	9634
chrM	3348	9530
chrM	3349	9531
chrM	3350	9527
chrM	3351	9577
chrM	3352	9521
chrM	3353	9531
chrM	3354	9461
chrM	3355	9419
chrM	3356	9377
chrM	3357	9339
chrM	3358	9323
chrM	3359	9247
chrM	3360	9152
chrM	3361	9094
chrM	3362	9053
chrM	3363	9018
chrM	3364	9019
chrM	3365	9045
chrM	3366	8918
chrM	3367	8876
chrM	3368	8877
chrM	3369	8906
chrM	3370	8883
chrM	3371	8905
chrM	3372	8958
chrM	3373	9001
chrM	3374	9048
chrM	3375	9090
chrM	3376	9112
chrM	3377	9144
chrM	3378	9139
chrM	3379	9123
chrM	3380	9113
chrM	3381	9161
chrM	3382	9135
chrM	3383	9117
chrM	3384	9141
chrM	3385	9166
chrM	3386	9182
chrM	3387	9141
chrM	3388	9118
chrM	3389	9105
chrM	3390	9123
chrM	3391	9138
chrM	3392	9162
chrM	3393	9204
chrM	3394	9170
chrM	3395	9166
chrM	3396	9168
chrM	3397	9116
chrM	3398	9119
chrM	3399	9149
chrM	3400	9166
chrM	3401	9187
chrM	3402	9161
chrM	3403	9124
chrM	3404	9191
chrM	3405	9330
chrM	3406	9363
chrM	3407	9393
chrM	3408	9433
chrM	3409	9475
chrM	3410	9494
chrM	3411	9464
chrM	3412	9480
chrM	3413	9454
chrM	3414	9388
chrM	3415	9368
chrM	3416	9384
chrM	3417	9385
chrM	3418	9460
chrM	3419	9551
chrM	3420	9571
chrM	3421	9543
chrM	3422	9513
chrM	3423	9521
chrM	3424	9509
chrM	3425	9440
chrM	3426	9355
chrM	3427	9298
chrM	3428	9310
chrM	3429	9361
chrM	3430	9408
chrM	3431	9408
chrM	3432	9357
chrM	3433	9321
chrM	3434	9306
chrM	3435	9333
chrM	3436	9369
chrM	3437	9396
chrM	3438	9391
chrM	3439	9347
chrM	3440	9300
chrM	3441	9305
chrM	3442	9285
chrM	3443	9261
chrM	3444	9140
chrM	3445	9153
chrM	3446	9212
chrM	3447	9190
chrM	3448	9192
chrM	3449	9155
chrM	3450	9051
chrM	3451	8990
chrM	3452	8951
chrM	3453	8940
chrM	3454	8932
chrM	3455	8931
chrM	3456	8912
chrM	3457	8864
chrM	3458	8811
chrM	3459	8821
chrM	3460	8837
chrM	3461	8839
chrM	3462	8908
chrM	3463	8912
chrM	3464	8860
chrM	3465	8829
chrM	3466	8827
chrM	3467	8794
chrM	3468	8798
chrM	3469	8802
chrM	3470	8795
chrM	3471	8741
chrM	3472	8743
chrM	3473	8775
chrM	3474	8787
chrM	3475	8783
chrM	3476	8797
chrM	3477	8778
chrM	3478	8772
chrM	3479	8709
chrM	3480	8746
chrM	3481	8751
chrM	3482	8754
chrM	3483	8741
chrM	3484	8729
chrM	3485	8748
chrM	3486	8704
chrM	3487	8728
chrM	3488	8709
chrM	3489	8746
chrM	3490	8820
chrM	3491	8804
chrM	3492	8793
chrM	3493	8754
chrM	3494	8706
chrM	3495	8764
chrM	3496	8733
chrM	3497	8709
chrM	3498	8733
chrM	3499	8731
chrM	3500	8722
chrM	3501	8727
chrM	3502	8751
chrM	3503	8716
chrM	3504	8705
chrM	3505	8662
chrM	3506	8654
chrM	3507	8579
chrM	3508	8596
chrM	3509	8565
chrM	3510	8553
chrM	3511	8528
chrM	3512	8505
chrM	3513	8518
chrM	3514	8601
chrM	3515	8578
chrM	3516	8460
chrM	3517	8475
chrM	3518	8466
chrM	3519	8453
chrM	3520	8484
chrM	3521	8411
chrM	3522	8383
chrM	3523	8382
chrM	3524	8381
chrM	3525	8348
chrM	3526	8293
chrM	3527	8247
chrM	3528	8151
chrM	3529	8178
chrM	3530	8184
chrM	3531	8136
chrM	3532	8087
chrM	3533	8063
chrM	3534	8040
chrM	3535	8045
chrM	3536	7998
chrM	3537	7950
chrM	3538	7917
chrM	3539	7859
chrM	3540	7755
chrM	3541	7734
chrM	3542	7708
chrM	3543	7719
chrM	3544	7699
chrM	3545	7674
chrM	3546	7620
chrM	3547	7586
chrM	3548	7641
chrM	3549	7590
chrM	3550	7546
chrM	3551	7493
chrM	3552	7480
chrM	3553	7405
chrM	3554	7354
chrM	3555	7358
chrM	3556	7360
chrM	3557	7353
chrM	3558	7306
chrM	3559	7301
chrM	3560	7367
chrM	3561	7350
chrM	3562	7354
chrM	3563	7278
chrM	3564	7271
chrM	3565	7211
chrM	3566	7176
chrM	3567	7243
chrM	3568	7244
chrM	3569	7254
chrM	3570	7266
chrM	3571	7240
chrM	3572	7219
chrM	3573	7229
chrM	3574	7235
chrM	3575	7222
chrM	3576	7195
chrM	3577	7161
chrM	3578	7111
chrM	3579	7070
chrM	3580	7013
chrM	3581	6919
chrM	3582	6849
chrM	3583	6842
chrM	3584	6837
chrM	3585	6884
chrM	3586	6960
chrM	3587	7041
chrM	3588	7132
chrM	3589	7132
chrM	3590	7113
chrM	3591	7102
chrM	3592	7116
chrM	3593	7137
chrM	3594	7113
chrM	3595	7067
chrM	3596	7048
chrM	3597	7006
chrM	3598	7002
chrM	3599	7042
chrM	3600	7146
chrM	3601	7150
chrM	3602	7141
chrM	3603	7123
chrM	3604	7106
chrM	3605	7131
chrM	3606	7110
chrM	3607	7072
chrM	3608	7059
chrM	3609	7103
chrM	3610	7116
chrM	3611	7137
chrM	3612	7130
chrM	3613	7131
chrM	3614	7153
chrM	3615	7136
chrM	3616	7184
chrM	3617	7169
chrM	3618	7163
chrM	3619	7164
chrM	3620	7110
chrM	3621	7070
chrM	3622	7044
chrM	3623	7021
chrM	3624	7010
chrM	3625	6957
chrM	3626	6950
chrM	3627	6950
chrM	3628	6942
chrM	3629	6948
chrM	3630	6902
chrM	3631	6936
chrM	3632	6939
chrM	3633	6972
chrM	3634	6973
chrM	3635	6921
chrM	3636	6908
chrM	3637	6924
chrM	3638	6952
chrM	3639	6939
chrM	3640	6941
chrM	3641	6958
chrM	3642	7003
chrM	3643	7039
chrM	3644	7038
chrM	3645	7028
chrM	3646	7028
chrM	3647	7030
chrM	3648	7034
chrM	3649	6990
chrM	3650	6996
chrM	3651	7006
chrM	3652	7004
chrM	3653	7029
chrM	3654	7042
chrM	3655	6962
chrM	3656	6948
chrM	3657	6991
chrM	3658	6976
chrM	3659	6996
chrM	3660	6999
chrM	3661	7030
chrM	3662	7034
chrM	3663	7035
chrM	3664	6975
chrM	3665	6948
chrM	3666	6964
chrM	3667	6976
chrM	3668	6951
chrM	3669	6982
chrM	3670	6956
chrM	3671	6953
chrM	3672	6968
chrM	3673	7022
chrM	3674	7010
chrM	3675	7005
chrM	3676	7016
chrM	3677	7018
chrM	3678	7009
chrM	3679	7086
chrM	3680	7080
chrM	3681	7085
chrM	3682	7105
chrM	3683	7047
chrM	3684	7061
chrM	3685	7102
chrM	3686	7133
chrM	3687	7070
chrM	3688	7038
chrM	3689	7077
chrM	3690	7078
chrM	3691	7146
chrM	3692	7149
chrM	3693	7176
chrM	3694	7200
chrM	3695	7153
chrM	3696	7155
chrM	3697	7194
chrM	3698	7236
chrM	3699	7208
chrM	3700	7263
chrM	3701	7339
chrM	3702	7376
chrM	3703	7410
chrM	3704	7525
chrM	3705	7586
chrM	3706	7616
chrM	3707	7675
chrM	3708	7709
chrM	3709	7752
chrM	3710	7840
chrM	3711	7855
chrM	3712	7901
chrM	3713	7959
chrM	3714	8000
chrM	3715	8107
chrM	3716	8121
chrM	3717	8146
chrM	3718	8179
chrM	3719	8209
chrM	3720	8189
chrM	3721	8198
chrM	3722	8148
chrM	3723	8092
chrM	3724	8111
chrM	3725	8170
chrM	3726	8189
chrM	3727	8239
chrM	3728	8253
chrM	3729	8310
chrM	3730	8370
chrM	3731	8399
chrM	3732	8491
chrM	3733	8501
chrM	3734	8507
chrM	3735	8422
chrM	3736	8410
chrM	3737	8440
chrM	3738	8438
chrM	3739	8463
chrM	3740	8424
chrM	3741	8457
chrM	3742	8455
chrM	3743	8430
chrM	3744	8436
chrM	3745	8503
chrM	3746	8465
chrM	3747	8463
chrM	3748	8422
chrM	3749	8425
chrM	3750	8412
chrM	3751	8417
chrM	3752	8438
chrM	3753	8526
chrM	3754	8590
chrM	3755	8652
chrM	3756	8798
chrM	3757	8806
chrM	3758	8845
chrM	3759	8844
chrM	3760	8857
chrM	3761	8910
chrM	3762	9015
chrM	3763	9047
chrM	3764	9071
chrM	3765	9148
chrM	3766	9144
chrM	3767	9130
chrM	3768	9106
chrM	3769	9150
chrM	3770	9196
chrM	3771	9236
chrM	3772	9224
chrM	3773	9179
chrM	3774	9145
chrM	3775	9146
chrM	3776	9088
chrM	3777	9110
chrM	3778	9055
chrM	3779	9032
chrM	3780	9031
chrM	3781	9046
chrM	3782	9050
chrM	3783	9099
chrM	3784	9071
chrM	3785	9070
chrM	3786	9068
chrM	3787	9055
chrM	3788	9047
chrM	3789	9069
chrM	3790	9123
chrM	3791	9111
chrM	3792	9068
chrM	3793	9073
chrM	3794	9071
chrM	3795	9070
chrM	3796	9034
chrM	3797	9017
chrM	3798	9032
chrM	3799	9039
chrM	3800	9087
chrM	3801	9161
chrM	3802	9153
chrM	3803	9163
chrM	3804	9128
chrM	3805	9159
chrM	3806	9198
chrM	3807	9290
chrM	3808	9299
chrM	3809	9343
chrM	3810	9367
chrM	3811	9379
chrM	3812	9370
chrM	3813	9335
chrM	3814	9298
chrM	3815	9316
chrM	3816	9300
chrM	3817	9287
chrM	3818	9307
chrM	3819	9327
chrM	3820	9348
chrM	3821	9365
chrM	3822	9518
chrM	3823	9555
chrM	3824	9486
chrM	3825	9488
chrM	3826	9465
chrM	3827	9487
chrM	3828	9508
chrM	3829	9518
chrM	3830	9540
chrM	3831	9573
chrM	3832	9506
chrM	3833	9524
chrM	3834	9548
chrM	3835	9534
chrM	3836	9493
chrM	3837	9566
chrM	3838	9529
chrM	3839	9457
chrM	3840	9394
chrM	3841	9372
chrM	3842	9337
chrM	3843	9320
chrM	3844	9338
chrM	3845	9309
chrM	3846	9349
chrM	3847	9375
chrM	3848	9331
chrM	3849	9307
chrM	3850	9255
chrM	3851	9232
chrM	3852	9197
chrM	3853	9155
chrM	3854	9151
chrM	3855	9147
chrM	3856	9134
chrM	3857	9159
chrM	3858	9164
chrM	3859	9186
chrM	3860	9155
chrM	3861	9168
chrM	3862	9139
chrM	3863	9164
chrM	3864	9134
chrM	3865	9084
chrM	3866	9079
chrM	3867	8966
chrM	3868	8937
chrM	3869	8911
chrM	3870	8949
chrM	3871	8969
chrM	3872	8972
chrM	3873	9008
chrM	3874	9003
chrM	3875	9045
chrM	3876	9022
chrM	3877	9035
chrM	3878	9073
chrM	3879	9040
chrM	3880	9000
chrM	3881	9086
chrM	3882	9105
chrM	3883	9178
chrM	3884	9207
chrM	3885	9248
chrM	3886	9227
chrM	3887	9252
chrM	3888	9230
chrM	3889	9269
chrM	3890	9285
chrM	3891	9272
chrM	3892	9356
chrM	3893	9306
chrM	3894	9279
chrM	3895	9256
chrM	3896	9244
chrM	3897	9116
chrM	3898	9092
chrM	3899	9065
chrM	3900	8974
chrM	3901	8964
chrM	3902	8961
chrM	3903	9034
chrM	3904	8964
chrM	3905	8935
chrM	3906	8992
chrM	3907	9026
chrM	3908	9047
chrM	3909	9057
chrM	3910	9038
chrM	3911	9134
chrM	3912	9113
chrM	3913	9136
chrM	3914	9205
chrM	3915	9251
chrM	3916	9251
chrM	3917	9274
chrM	3918	9342
chrM	3919	9381
chrM	3920	9421
chrM	3921	9424
chrM	3922	9450
chrM	3923	9478
chrM	3924	9491
chrM	3925	9441
chrM	3926	9487
chrM	3927	9526
chrM	3928	9533
chrM	3929	9506
chrM	3930	9495
chrM	3931	9551
chrM	3932	9584
chrM	3933	9587
chrM	3934	9617
chrM	3935	9597
chrM	3936	9590
chrM	3937	9650
chrM	3938	9692
chrM	3939	9813
chrM	3940	9812
chrM	3941	9828
chrM	3942	9764
chrM	3943	9752
chrM	3944	9748
chrM	3945	9720
chrM	3946	9690
chrM	3947	9725
chrM	3948	9737
chrM	3949	9669
chrM	3950	9696
chrM	3951	9769
chrM	3952	9773
chrM	3953	9796
chrM	3954	9798
chrM	3955	9781
chrM	3956	9795
chrM	3957	9694
chrM	3958	9688
chrM	3959	9704
chrM	3960	9712
chrM	3961	9664
chrM	3962	9681
chrM	3963	9721
chrM	3964	9733
chrM	3965	9752
chrM	3966	9758
chrM	3967	9824
chrM	3968	9928
chrM	3969	9956
chrM	3970	9979
chrM	3971	9987
chrM	3972	9946
chrM	3973	9990
chrM	3974	9966
chrM	3975	10008
chrM	3976	10130
chrM	3977	10133
chrM	3978	10110
chrM	3979	10081
chrM	3980	10117
chrM	3981	10147
chrM	3982	10207
chrM	3983	10211
chrM	3984	10217
chrM	3985	10158
chrM	3986	10173
chrM	3987	10223
chrM	3988	10297
chrM	3989	10332
chrM	3990	10334
chrM	3991	10337
chrM	3992	10313
chrM	3993	10328
chrM	3994	10368
chrM	3995	10429
chrM	3996	10482
chrM	3997	10619
chrM	3998	10583
chrM	3999	10610
chrM	4000	10671
chrM	4001	10724
chrM	4002	10750
chrM	4003	10892
chrM	4004	10915
chrM	4005	10951
chrM	4006	10952
chrM	4007	10983
chrM	4008	11089
chrM	4009	11102
chrM	4010	11062
chrM	4011	11059
chrM	4012	11080
chrM	4013	11040
chrM	4014	11041
chrM	4015	11045
chrM	4016	11032
chrM	4017	11044
chrM	4018	11001
chrM	4019	10987
chrM	4020	10981
chrM	4021	10960
chrM	4022	10946
chrM	4023	10944
chrM	4024	10897
chrM	4025	10881
chrM	4026	10795
chrM	4027	10748
chrM	4028	10888
chrM	4029	11019
chrM	4030	11158
chrM	4031	11180
chrM	4032	11193
chrM	4033	11183
chrM	4034	11184
chrM	4035	11158
chrM	4036	11148
chrM	4037	11133
chrM	4038	11037
chrM	4039	11077
chrM	4040	11092
chrM	4041	10973
chrM	4042	10968
chrM	4043	11020
chrM	4044	11139
chrM	4045	11160
chrM	4046	11162
chrM	4047	11126
chrM	4048	11167
chrM	4049	11184
chrM	4050	11172
chrM	4051	11149
chrM	4052	11140
chrM	4053	11041
chrM	4054	11057
chrM	4055	11071
chrM	4056	11221
chrM	4057	11205
chrM	4058	11179
chrM	4059	11113
chrM	4060	11159
chrM	4061	11177
chrM	4062	11222
chrM	4063	11255
chrM	4064	11295
chrM	4065	11329
chrM	4066	11314
chrM	4067	11307
chrM	4068	11355
chrM	4069	11454
chrM	4070	11463
chrM	4071	11441
chrM	4072	11427
chrM	4073	11422
chrM	4074	11430
chrM	4075	11452
chrM	4076	11439
chrM	4077	11438
chrM	4078	11460
chrM	4079	11510
chrM	4080	11522
chrM	4081	11595
chrM	4082	11638
chrM	4083	11675
chrM	4084	11751
chrM	4085	11781
chrM	4086	11754
chrM	4087	11744
chrM	4088	11759
chrM	4089	11753
chrM	4090	11737
chrM	4091	11671
chrM	4092	11596
chrM	4093	11560
chrM	4094	11574
chrM	4095	11581
chrM	4096	11641
chrM	4097	11680
chrM	4098	11636
chrM	4099	11684
chrM	4100	11718
chrM	4101	11706
chrM	4102	11593
chrM	4103	11486
chrM	4104	11488
chrM	4105	11485
chrM	4106	11498
chrM	4107	11517
chrM	4108	11526
chrM	4109	11575
chrM	4110	11560
chrM	4111	11487
chrM	4112	11479
chrM	4113	11552
chrM	4114	11584
chrM	4115	11596
chrM	4116	11578
chrM	4117	11571
chrM	4118	11638
chrM	4119	11718
chrM	4120	11750
chrM	4121	11744
chrM	4122	11679
chrM	4123	11603
chrM	4124	11562
chrM	4125	11576
chrM	4126	11658
chrM	4127	11689
chrM	4128	11675
chrM	4129	11615
chrM	4130	11683
chrM	4131	11660
chrM	4132	11563
chrM	4133	11577
chrM	4134	11587
chrM	4135	11560
chrM	4136	11523
chrM	4137	11542
chrM	4138	11404
chrM	4139	11389
chrM	4140	11306
chrM	4141	11333
chrM	4142	11257
chrM	4143	11155
chrM	4144	11163
chrM	4145	11226
chrM	4146	11306
chrM	4147	11444
chrM	4148	11524
chrM	4149	11579
chrM	4150	11644
chrM	4151	11729
chrM	4152	11787
chrM	4153	11827
chrM	4154	11772
chrM	4155	11713
chrM	4156	11701
chrM	4157	11678
chrM	4158	11688
chrM	4159	11652
chrM	4160	11632
chrM	4161	11638
chrM	4162	11633
chrM	4163	11610
chrM	4164	11551
chrM	4165	11414
chrM	4166	11399
chrM	4167	11409
chrM	4168	11458
chrM	4169	11499
chrM	4170	11561
chrM	4171	11551
chrM	4172	11577
chrM	4173	11560
chrM	4174	11555
chrM	4175	11563
chrM	4176	11619
chrM	4177	11604
chrM	4178	11594
chrM	4179	11547
chrM	4180	11550
chrM	4181	11597
chrM	4182	11681
chrM	4183	11688
chrM	4184	11679
chrM	4185	11713
chrM	4186	11752
chrM	4187	11829
chrM	4188	11812
chrM	4189	11725
chrM	4190	11644
chrM	4191	11480
chrM	4192	11475
chrM	4193	11491
chrM	4194	11624
chrM	4195	11596
chrM	4196	11555
chrM	4197	11492
chrM	4198	11430
chrM	4199	11378
chrM	4200	11378
chrM	4201	11451
chrM	4202	11435
chrM	4203	11396
chrM	4204	11261
chrM	4205	11268
chrM	4206	11256
chrM	4207	11268
chrM	4208	11254
chrM	4209	11225
chrM	4210	11246
chrM	4211	11244
chrM	4212	11273
chrM	4213	11390
chrM	4214	11351
chrM	4215	11372
chrM	4216	11288
chrM	4217	11191
chrM	4218	11116
chrM	4219	11080
chrM	4220	11028
chrM	4221	10993
chrM	4222	10969
chrM	4223	10889
chrM	4224	10850
chrM	4225	10829
chrM	4226	10837
chrM	4227	10868
chrM	4228	10862
chrM	4229	10833
chrM	4230	10815
chrM	4231	10838
chrM	4232	10792
chrM	4233	10884
chrM	4234	10854
chrM	4235	10878
chrM	4236	10860
chrM	4237	10922
chrM	4238	10908
chrM	4239	10904
chrM	4240	10932
chrM	4241	10939
chrM	4242	10898
chrM	4243	10852
chrM	4244	10768
chrM	4245	10726
chrM	4246	10714
chrM	4247	10690
chrM	4248	10689
chrM	4249	10661
chrM	4250	10601
chrM	4251	10548
chrM	4252	10535
chrM	4253	10544
chrM	4254	10532
chrM	4255	10545
chrM	4256	10601
chrM	4257	10616
chrM	4258	10659
chrM	4259	10658
chrM	4260	10673
chrM	4261	10556
chrM	4262	10530
chrM	4263	10569
chrM	4264	10550
chrM	4265	10457
chrM	4266	10479
chrM	4267	10459
chrM	4268	10453
chrM	4269	10442
chrM	4270	10469
chrM	4271	10480
chrM	4272	10454
chrM	4273	10499
chrM	4274	10504
chrM	4275	10548
chrM	4276	10574
chrM	4277	10639
chrM	4278	10642
chrM	4279	10628
chrM	4280	10627
chrM	4281	10588
chrM	4282	10562
chrM	4283	10538
chrM	4284	10550
chrM	4285	10452
chrM	4286	10330
chrM	4287	10265
chrM	4288	10255
chrM	4289	10330
chrM	4290	10392
chrM	4291	10438
chrM	4292	10478
chrM	4293	10478
chrM	4294	10494
chrM	4295	10512
chrM	4296	10469
chrM	4297	10401
chrM	4298	10288
chrM	4299	10253
chrM	4300	10228
chrM	4301	10310
chrM	4302	10338
chrM	4303	10369
chrM	4304	10438
chrM	4305	10460
chrM	4306	10501
chrM	4307	10520
chrM	4308	10538
chrM	4309	10534
chrM	4310	10506
chrM	4311	10511
chrM	4312	10525
chrM	4313	10529
chrM	4314	10486
chrM	4315	10490
chrM	4316	10456
chrM	4317	10394
chrM	4318	10344
chrM	4319	10403
chrM	4320	10410
chrM	4321	10382
chrM	4322	10236
chrM	4323	10219
chrM	4324	10241
chrM	4325	10295
chrM	4326	10284
chrM	4327	10276
chrM	4328	10245
chrM	4329	10107
chrM	4330	10055
chrM	4331	10056
chrM	4332	10121
chrM	4333	10145
chrM	4334	10215
chrM	4335	10249
chrM	4336	10262
chrM	4337	10355
chrM	4338	10350
chrM	4339	10374
chrM	4340	10386
chrM	4341	10387
chrM	4342	10351
chrM	4343	10327
chrM	4344	10254
chrM	4345	10223
chrM	4346	10298
chrM	4347	10252
chrM	4348	10112
chrM	4349	10087
chrM	4350	10041
chrM	4351	10084
chrM	4352	10127
chrM	4353	10161
chrM	4354	10161
chrM	4355	10179
chrM	4356	10241
chrM	4357	10264
chrM	4358	10287
chrM	4359	10322
chrM	4360	10334
chrM	4361	10332
chrM	4362	10343
chrM	4363	10373
chrM	4364	10388
chrM	4365	10421
chrM	4366	10419
chrM	4367	10505
chrM	4368	10442
chrM	4369	10392
chrM	4370	10312
chrM	4371	10361
chrM	4372	10325
chrM	4373	10272
chrM	4374	10193
chrM	4375	10129
chrM	4376	10085
chrM	4377	10065
chrM	4378	10078
chrM	4379	10090
chrM	4380	10056
chrM	4381	10035
chrM	4382	10011
chrM	4383	9978
chrM	4384	9971
chrM	4385	10031
chrM	4386	10074
chrM	4387	10059
chrM	4388	9965
chrM	4389	9942
chrM	4390	9935
chrM	4391	9917
chrM	4392	9943
chrM	4393	9948
chrM	4394	9969
chrM	4395	9958
chrM	4396	10052
chrM	4397	10037
chrM	4398	10006
chrM	4399	9988
chrM	4400	9994
chrM	4401	10044
chrM	4402	10026
chrM	4403	9999
chrM	4404	10018
chrM	4405	10057
chrM	4406	10044
chrM	4407	10056
chrM	4408	10058
chrM	4409	10090
chrM	4410	10065
chrM	4411	10028
chrM	4412	10057
chrM	4413	10154
chrM	4414	10169
chrM	4415	10258
chrM	4416	10276
chrM	4417	10243
chrM	4418	10258
chrM	4419	10242
chrM	4420	10220
chrM	4421	10222
chrM	4422	10224
chrM	4423	10234
chrM	4424	10292
chrM	4425	10241
chrM	4426	10188
chrM	4427	10127
chrM	4428	10100
chrM	4429	10075
chrM	4430	10028
chrM	4431	10037
chrM	4432	10045
chrM	4433	10096
chrM	4434	10063
chrM	4435	10167
chrM	4436	10093
chrM	4437	10123
chrM	4438	10072
chrM	4439	10055
chrM	4440	9994
chrM	4441	10013
chrM	4442	10051
chrM	4443	10147
chrM	4444	10182
chrM	4445	10195
chrM	4446	10177
chrM	4447	10177
chrM	4448	10185
chrM	4449	10243
chrM	4450	10239
chrM	4451	10288
chrM	4452	10323
chrM	4453	10370
chrM	4454	10287
chrM	4455	10294
chrM	4456	10299
chrM	4457	10356
chrM	4458	10330
chrM	4459	10352
chrM	4460	10361
chrM	4461	10374
chrM	4462	10351
chrM	4463	10343
chrM	4464	10338
chrM	4465	10330
chrM	4466	10289
chrM	4467	10222
chrM	4468	10242
chrM	4469	10161
chrM	4470	10081
chrM	4471	9972
chrM	4472	9916
chrM	4473	9990
chrM	4474	10057
chrM	4475	10076
chrM	4476	10192
chrM	4477	10228
chrM	4478	10294
chrM	4479	10329
chrM	4480	10348
chrM	4481	10273
chrM	4482	10302
chrM	4483	10286
chrM	4484	10337
chrM	4485	10313
chrM	4486	10256
chrM	4487	10195
chrM	4488	10208
chrM	4489	10223
chrM	4490	10350
chrM	4491	10322
chrM	4492	10318
chrM	4493	10302
chrM	4494	10301
chrM	4495	10386
chrM	4496	10419
chrM	4497	10391
chrM	4498	10422
chrM	4499	10452
chrM	4500	10442
chrM	4501	10395
chrM	4502	10298
chrM	4503	10284
chrM	4504	10311
chrM	4505	10292
chrM	4506	10242
chrM	4507	10289
chrM	4508	10348
chrM	4509	10400
chrM	4510	10516
chrM	4511	10532
chrM	4512	10522
chrM	4513	10482
chrM	4514	10555
chrM	4515	10624
chrM	4516	10637
chrM	4517	10626
chrM	4518	10626
chrM	4519	10684
chrM	4520	10727
chrM	4521	10691
chrM	4522	10630
chrM	4523	10647
chrM	4524	10704
chrM	4525	10752
chrM	4526	10739
chrM	4527	10775
chrM	4528	10829
chrM	4529	10819
chrM	4530	10849
chrM	4531	10792
chrM	4532	10823
chrM	4533	10809
chrM	4534	10920
chrM	4535	10936
chrM	4536	10894
chrM	4537	10954
chrM	4538	11020
chrM	4539	11057
chrM	4540	10999
chrM	4541	11061
chrM	4542	11069
chrM	4543	11110
chrM	4544	11114
chrM	4545	11156
chrM	4546	11175
chrM	4547	11165
chrM	4548	11064
chrM	4549	11112
chrM	4550	11055
chrM	4551	11100
chrM	4552	11053
chrM	4553	11058
chrM	4554	11008
chrM	4555	11038
chrM	4556	11037
chrM	4557	11023
chrM	4558	10985
chrM	4559	10883
chrM	4560	10925
chrM	4561	10963
chrM	4562	11020
chrM	4563	11040
chrM	4564	11065
chrM	4565	11106
chrM	4566	11172
chrM	4567	11233
chrM	4568	11358
chrM	4569	11533
chrM	4570	11489
chrM	4571	11453
chrM	4572	11404
chrM	4573	11385
chrM	4574	11345
chrM	4575	11476
chrM	4576	11459
chrM	4577	11431
chrM	4578	11326
chrM	4579	11318
chrM	4580	11317
chrM	4581	11321
chrM	4582	11331
chrM	4583	11314
chrM	4584	11273
chrM	4585	11287
chrM	4586	11213
chrM	4587	11157
chrM	4588	11156
chrM	4589	11137
chrM	4590	11120
chrM	4591	11114
chrM	4592	11150
chrM	4593	11165
chrM	4594	11179
chrM	4595	11175
chrM	4596	11187
chrM	4597	11196
chrM	4598	11256
chrM	4599	11312
chrM	4600	11317
chrM	4601	11392
chrM	4602	11443
chrM	4603	11455
chrM	4604	11578
chrM	4605	11697
chrM	4606	11749
chrM	4607	11699
chrM	4608	11689
chrM	4609	11652
chrM	4610	11638
chrM	4611	11583
chrM	4612	11596
chrM	4613	11554
chrM	4614	11533
chrM	4615	11554
chrM	4616	11548
chrM	4617	11520
chrM	4618	11570
chrM	4619	11537
chrM	4620	11583
chrM	4621	11670
chrM	4622	11704
chrM	4623	11734
chrM	4624	11830
chrM	4625	11818
chrM	4626	11855
chrM	4627	11903
chrM	4628	11967
chrM	4629	12027
chrM	4630	12015
chrM	4631	12123
chrM	4632	12135
chrM	4633	12084
chrM	4634	12017
chrM	4635	12036
chrM	4636	12104
chrM	4637	12143
chrM	4638	12166
chrM	4639	12183
chrM	4640	12173
chrM	4641	12206
chrM	4642	12226
chrM	4643	12343
chrM	4644	12372
chrM	4645	12249
chrM	4646	12197
chrM	4647	12204
chrM	4648	12283
chrM	4649	12283
chrM	4650	12249
chrM	4651	12308
chrM	4652	12332
chrM	4653	12372
chrM	4654	12361
chrM	4655	12305
chrM	4656	12358
chrM	4657	12390
chrM	4658	12437
chrM	4659	12398
chrM	4660	12370
chrM	4661	12431
chrM	4662	12423
chrM	4663	12448
chrM	4664	12474
chrM	4665	12601
chrM	4666	12654
chrM	4667	12727
chrM	4668	12734
chrM	4669	12691
chrM	4670	12652
chrM	4671	12661
chrM	4672	12644
chrM	4673	12680
chrM	4674	12626
chrM	4675	12727
chrM	4676	12656
chrM	4677	12630
chrM	4678	12548
chrM	4679	12485
chrM	4680	12455
chrM	4681	12464
chrM	4682	12451
chrM	4683	12425
chrM	4684	12326
chrM	4685	12372
chrM	4686	12357
chrM	4687	12306
chrM	4688	12212
chrM	4689	12164
chrM	4690	12163
chrM	4691	12207
chrM	4692	12255
chrM	4693	12277
chrM	4694	12343
chrM	4695	12382
chrM	4696	12512
chrM	4697	12476
chrM	4698	12469
chrM	4699	12442
chrM	4700	12411
chrM	4701	12386
chrM	4702	12380
chrM	4703	12314
chrM	4704	12276
chrM	4705	12251
chrM	4706	12280
chrM	4707	12298
chrM	4708	12501
chrM	4709	12536
chrM	4710	12464
chrM	4711	12516
chrM	4712	12546
chrM	4713	12590
chrM	4714	12595
chrM	4715	12637
chrM	4716	12677
chrM	4717	12676
chrM	4718	12671
chrM	4719	12688
chrM	4720	12647
chrM	4721	12672
chrM	4722	12848
chrM	4723	12847
chrM	4724	12848
chrM	4725	12825
chrM	4726	12786
chrM	4727	12769
chrM	4728	12742
chrM	4729	12683
chrM	4730	12670
chrM	4731	12706
chrM	4732	12728
chrM	4733	12749
chrM	4734	12730
chrM	4735	12818
chrM	4736	12772
chrM	4737	12770
chrM	4738	12779
chrM	4739	12708
chrM	4740	12670
chrM	4741	12721
chrM	4742	12806
chrM	4743	12809
chrM	4744	12797
chrM	4745	12752
chrM	4746	12684
chrM	4747	12686
chrM	4748	12683
chrM	4749	12706
chrM	4750	12716
chrM	4751	12731
chrM	4752	12757
chrM	4753	12743
chrM	4754	12798
chrM	4755	12795
chrM	4756	12722
chrM	4757	12675
chrM	4758	12671
chrM	4759	12590
chrM	4760	12496
chrM	4761	12535
chrM	4762	12545
chrM	4763	12555
chrM	4764	12549
chrM	4765	12524
chrM	4766	12432
chrM	4767	12491
chrM	4768	12526
chrM	4769	12587
chrM	4770	12622
chrM	4771	12572
chrM	4772	12533
chrM	4773	12479
chrM	4774	12512
chrM	4775	12651
chrM	4776	12651
chrM	4777	12640
chrM	4778	12501
chrM	4779	12537
chrM	4780	12593
chrM	4781	12644
chrM	4782	12686
chrM	4783	12688
chrM	4784	12685
chrM	4785	12747
chrM	4786	12734
chrM	4787	12816
chrM	4788	12866
chrM	4789	12902
chrM	4790	12881
chrM	4791	12871
chrM	4792	12876
chrM	4793	12910
chrM	4794	12929
chrM	4795	12950
chrM	4796	12981
chrM	4797	12993
chrM	4798	12926
chrM	4799	12885
chrM	4800	12759
chrM	4801	12738
chrM	4802	12669
chrM	4803	12715
chrM	4804	12696
chrM	4805	12732
chrM	4806	12713
chrM	4807	12715
chrM	4808	12627
chrM	4809	12655
chrM	4810	12639
chrM	4811	12649
chrM	4812	12633
chrM	4813	12671
chrM	4814	12847
chrM	4815	12875
chrM	4816	12846
chrM	4817	12799
chrM	4818	12903
chrM	4819	12927
chrM	4820	12811
chrM	4821	12732
chrM	4822	12787
chrM	4823	12848
chrM	4824	13036
chrM	4825	13043
chrM	4826	13152
chrM	4827	13268
chrM	4828	13310
chrM	4829	13337
chrM	4830	13348
chrM	4831	13219
chrM	4832	13194
chrM	4833	13175
chrM	4834	13169
chrM	4835	13172
chrM	4836	13153
chrM	4837	13138
chrM	4838	13124
chrM	4839	13042
chrM	4840	13006
chrM	4841	12995
chrM	4842	12984
chrM	4843	12820
chrM	4844	12777
chrM	4845	12738
chrM	4846	12678
chrM	4847	12660
chrM	4848	12659
chrM	4849	12624
chrM	4850	12632
chrM	4851	12722
chrM	4852	12746
chrM	4853	12727
chrM	4854	12675
chrM	4855	12645
chrM	4856	12582
chrM	4857	12441
chrM	4858	12443
chrM	4859	12455
chrM	4860	12491
chrM	4861	12550
chrM	4862	12616
chrM	4863	12645
chrM	4864	12658
chrM	4865	12622
chrM	4866	12599
chrM	4867	12580
chrM	4868	12545
chrM	4869	12583
chrM	4870	12579
chrM	4871	12650
chrM	4872	12689
chrM	4873	12708
chrM	4874	12714
chrM	4875	12727
chrM	4876	12702
chrM	4877	12672
chrM	4878	12652
chrM	4879	12667
chrM	4880	12755
chrM	4881	12756
chrM	4882	12699
chrM	4883	12688
chrM	4884	12671
chrM	4885	12662
chrM	4886	12735
chrM	4887	12836
chrM	4888	12767
chrM	4889	12648
chrM	4890	12722
chrM	4891	12752
chrM	4892	12770
chrM	4893	12765
chrM	4894	12696
chrM	4895	12646
chrM	4896	12576
chrM	4897	12547
chrM	4898	12570
chrM	4899	12571
chrM	4900	12534
chrM	4901	12466
chrM	4902	12407
chrM	4903	12399
chrM	4904	12422
chrM	4905	12383
chrM	4906	12354
chrM	4907	12371
chrM	4908	12420
chrM	4909	12488
chrM	4910	12392
chrM	4911	12378
chrM	4912	12331
chrM	4913	12330
chrM	4914	12246
chrM	4915	12216
chrM	4916	12219
chrM	4917	12195
chrM	4918	12177
chrM	4919	12141
chrM	4920	12124
chrM	4921	12095
chrM	4922	12051
chrM	4923	12022
chrM	4924	11982
chrM	4925	11967
chrM	4926	11972
chrM	4927	11974
chrM	4928	11926
chrM	4929	11872
chrM	4930	11893
chrM	4931	11830
chrM	4932	11815
chrM	4933	11839
chrM	4934	11873
chrM	4935	11850
chrM	4936	11786
chrM	4937	11781
chrM	4938	11769
chrM	4939	11755
chrM	4940	11707
chrM	4941	11645
chrM	4942	11635
chrM	4943	11657
chrM	4944	11654
chrM	4945	11684
chrM	4946	11702
chrM	4947	11743
chrM	4948	11738
chrM	4949	11614
chrM	4950	11611
chrM	4951	11651
chrM	4952	11698
chrM	4953	11661
chrM	4954	11707
chrM	4955	11767
chrM	4956	11788
chrM	4957	11800
chrM	4958	11796
chrM	4959	11691
chrM	4960	11730
chrM	4961	11619
chrM	4962	11546
chrM	4963	11566
chrM	4964	11513
chrM	4965	11480
chrM	4966	11584
chrM	4967	11774
chrM	4968	11806
chrM	4969	11860
chrM	4970	11856
chrM	4971	11953
chrM	4972	11989
chrM	4973	11967
chrM	4974	12027
chrM	4975	12115
chrM	4976	12189
chrM	4977	12233
chrM	4978	12229
chrM	4979	12234
chrM	4980	12270
chrM	4981	12313
chrM	4982	12295
chrM	4983	12239
chrM	4984	12261
chrM	4985	12255
chrM	4986	12175
chrM	4987	12150
chrM	4988	12137
chrM	4989	12161
chrM	4990	12190
chrM	4991	12240
chrM	4992	12271
chrM	4993	12276
chrM	4994	12267
chrM	4995	12329
chrM	4996	12332
chrM	4997	12267
chrM	4998	12246
chrM	4999	12333
chrM	5000	12463
chrM	5001	12482
chrM	5002	12610
chrM	5003	12591
chrM	5004	12580
chrM	5005	12513
chrM	5006	12540
chrM	5007	12526
chrM	5008	12530
chrM	5009	12568
chrM	5010	12555
chrM	5011	12530
chrM	5012	12554
chrM	5013	12567
chrM	5014	12543
chrM	5015	12525
chrM	5016	12577
chrM	5017	12645
chrM	5018	12702
chrM	5019	12882
chrM	5020	12875
chrM	5021	12772
chrM	5022	12636
chrM	5023	12701
chrM	5024	12842
chrM	5025	12955
chrM	5026	12983
chrM	5027	12998
chrM	5028	12984
chrM	5029	13004
chrM	5030	13022
chrM	5031	12989
chrM	5032	13004
chrM	5033	12950
chrM	5034	12960
chrM	5035	12964
chrM	5036	13043
chrM	5037	13104
chrM	5038	13121
chrM	5039	13095
chrM	5040	13189
chrM	5041	13212
chrM	5042	13223
chrM	5043	13247
chrM	5044	13132
chrM	5045	13120
chrM	5046	13090
chrM	5047	13082
chrM	5048	13082
chrM	5049	13137
chrM	5050	13188
chrM	5051	13211
chrM	5052	13256
chrM	5053	13248
chrM	5054	13240
chrM	5055	13249
chrM	5056	13269
chrM	5057	13291
chrM	5058	13298
chrM	5059	13272
chrM	5060	13292
chrM	5061	13324
chrM	5062	13349
chrM	5063	13372
chrM	5064	13444
chrM	5065	13424
chrM	5066	13458
chrM	5067	13460
chrM	5068	13474
chrM	5069	13513
chrM	5070	13537
chrM	5071	13612
chrM	5072	13637
chrM	5073	13663
chrM	5074	13716
chrM	5075	13790
chrM	5076	13903
chrM	5077	14041
chrM	5078	14189
chrM	5079	14257
chrM	5080	14159
chrM	5081	14088
chrM	5082	14047
chrM	5083	14015
chrM	5084	13937
chrM	5085	13903
chrM	5086	13980
chrM	5087	13974
chrM	5088	13955
chrM	5089	13914
chrM	5090	13915
chrM	5091	13933
chrM	5092	14013
chrM	5093	14019
chrM	5094	14042
chrM	5095	14027
chrM	5096	13996
chrM	5097	13935
chrM	5098	13922
chrM	5099	14015
chrM	5100	14033
chrM	5101	13923
chrM	5102	13752
chrM	5103	13758
chrM	5104	13808
chrM	5105	13880
chrM	5106	13831
chrM	5107	13884
chrM	5108	13876
chrM	5109	13847
chrM	5110	13823
chrM	5111	13792
chrM	5112	13718
chrM	5113	13753
chrM	5114	13755
chrM	5115	13804
chrM	5116	13948
chrM	5117	14029
chrM	5118	14063
chrM	5119	14028
chrM	5120	13983
chrM	5121	13941
chrM	5122	14008
chrM	5123	14049
chrM	5124	14119
chrM	5125	14166
chrM	5126	14290
chrM	5127	14228
chrM	5128	14200
chrM	5129	14210
chrM	5130	14117
chrM	5131	14062
chrM	5132	14035
chrM	5133	14079
chrM	5134	14038
chrM	5135	13959
chrM	5136	13901
chrM	5137	13758
chrM	5138	13721
chrM	5139	13663
chrM	5140	13656
chrM	5141	13559
chrM	5142	13483
chrM	5143	13413
chrM	5144	13334
chrM	5145	13242
chrM	5146	13213
chrM	5147	13185
chrM	5148	13240
chrM	5149	13274
chrM	5150	13293
chrM	5151	13278
chrM	5152	13299
chrM	5153	13258
chrM	5154	13093
chrM	5155	13147
chrM	5156	13190
chrM	5157	13275
chrM	5158	13266
chrM	5159	13224
chrM	5160	13080
chrM	5161	13121
chrM	5162	13126
chrM	5163	13176
chrM	5164	13215
chrM	5165	13237
chrM	5166	13251
chrM	5167	13292
chrM	5168	13321
chrM	5169	13240
chrM	5170	13267
chrM	5171	13306
chrM	5172	13285
chrM	5173	13271
chrM	5174	13252
chrM	5175	13109
chrM	5176	13146
chrM	5177	13129
chrM	5178	13098
chrM	5179	13126
chrM	5180	13131
chrM	5181	13130
chrM	5182	13169
chrM	5183	13237
chrM	5184	13239
chrM	5185	13253
chrM	5186	13246
chrM	5187	13241
chrM	5188	13274
chrM	5189	13318
chrM	5190	13298
chrM	5191	13285
chrM	5192	13291
chrM	5193	13317
chrM	5194	13345
chrM	5195	13351
chrM	5196	13308
chrM	5197	13280
chrM	5198	13304
chrM	5199	13307
chrM	5200	13282
chrM	5201	13287
chrM	5202	13277
chrM	5203	13266
chrM	5204	13245
chrM	5205	13273
chrM	5206	13255
chrM	5207	13212
chrM	5208	13272
chrM	5209	13150
chrM	5210	13210
chrM	5211	13120
chrM	5212	12975
chrM	5213	12823
chrM	5214	12753
chrM	5215	12799
chrM	5216	12895
chrM	5217	12917
chrM	5218	12970
chrM	5219	13054
chrM	5220	13108
chrM	5221	13014
chrM	5222	12976
chrM	5223	12967
chrM	5224	13015
chrM	5225	13023
chrM	5226	13025
chrM	5227	12875
chrM	5228	12806
chrM	5229	12791
chrM	5230	12866
chrM	5231	12930
chrM	5232	12968
chrM	5233	12943
chrM	5234	12824
chrM	5235	12835
chrM	5236	12847
chrM	5237	12896
chrM	5238	12900
chrM	5239	12879
chrM	5240	12880
chrM	5241	12837
chrM	5242	12764
chrM	5243	12767
chrM	5244	12792
chrM	5245	12846
chrM	5246	12907
chrM	5247	13050
chrM	5248	13084
chrM	5249	13117
chrM	5250	13034
chrM	5251	12911
chrM	5252	12845
chrM	5253	12831
chrM	5254	12861
chrM	5255	13016
chrM	5256	13062
chrM	5257	13040
chrM	5258	12986
chrM	5259	12938
chrM	5260	12895
chrM	5261	12728
chrM	5262	12762
chrM	5263	12753
chrM	5264	12756
chrM	5265	12767
chrM	5266	12807
chrM	5267	12823
chrM	5268	12900
chrM	5269	12859
chrM	5270	12869
chrM	5271	12918
chrM	5272	12991
chrM	5273	13030
chrM	5274	13135
chrM	5275	13269
chrM	5276	13473
chrM	5277	13533
chrM	5278	13554
chrM	5279	13576
chrM	5280	13629
chrM	5281	13671
chrM	5282	13716
chrM	5283	13656
chrM	5284	13652
chrM	5285	13625
chrM	5286	13578
chrM	5287	13503
chrM	5288	13493
chrM	5289	13492
chrM	5290	13467
chrM	5291	13444
chrM	5292	13381
chrM	5293	13381
chrM	5294	13392
chrM	5295	13403
chrM	5296	13370
chrM	5297	13367
chrM	5298	13387
chrM	5299	13420
chrM	5300	13470
chrM	5301	13537
chrM	5302	13529
chrM	5303	13559
chrM	5304	13613
chrM	5305	13638
chrM	5306	13541
chrM	5307	13557
chrM	5308	13546
chrM	5309	13583
chrM	5310	13623
chrM	5311	13631
chrM	5312	13638
chrM	5313	13592
chrM	5314	13596
chrM	5315	13745
chrM	5316	13813
chrM	5317	13869
chrM	5318	13847
chrM	5319	13868
chrM	5320	13878
chrM	5321	13860
chrM	5322	13824
chrM	5323	13820
chrM	5324	13784
chrM	5325	13761
chrM	5326	13842
chrM	5327	13837
chrM	5328	13800
chrM	5329	13805
chrM	5330	13800
chrM	5331	13838
chrM	5332	13848
chrM	5333	13812
chrM	5334	13776
chrM	5335	13754
chrM	5336	13783
chrM	5337	13783
chrM	5338	13796
chrM	5339	13798
chrM	5340	13757
chrM	5341	13790
chrM	5342	13845
chrM	5343	13764
chrM	5344	13797
chrM	5345	13821
chrM	5346	13831
chrM	5347	13869
chrM	5348	13904
chrM	5349	13937
chrM	5350	13987
chrM	5351	14014
chrM	5352	14064
chrM	5353	14069
chrM	5354	14106
chrM	5355	14113
chrM	5356	14123
chrM	5357	14193
chrM	5358	14160
chrM	5359	14215
chrM	5360	14203
chrM	5361	14191
chrM	5362	14262
chrM	5363	14325
chrM	5364	14332
chrM	5365	14313
chrM	5366	14313
chrM	5367	14332
chrM	5368	14429
chrM	5369	14401
chrM	5370	14310
chrM	5371	14247
chrM	5372	14169
chrM	5373	14147
chrM	5374	14154
chrM	5375	14119
chrM	5376	14157
chrM	5377	14144
chrM	5378	14083
chrM	5379	14037
chrM	5380	13969
chrM	5381	13913
chrM	5382	13819
chrM	5383	13743
chrM	5384	13671
chrM	5385	13638
chrM	5386	13644
chrM	5387	13705
chrM	5388	13717
chrM	5389	13669
chrM	5390	13505
chrM	5391	13495
chrM	5392	13443
chrM	5393	13497
chrM	5394	13484
chrM	5395	13479
chrM	5396	13481
chrM	5397	13514
chrM	5398	13513
chrM	5399	13531
chrM	5400	13569
chrM	5401	13559
chrM	5402	13547
chrM	5403	13480
chrM	5404	13602
chrM	5405	13633
chrM	5406	13661
chrM	5407	13612
chrM	5408	13633
chrM	5409	13626
chrM	5410	13567
chrM	5411	13452
chrM	5412	13462
chrM	5413	13542
chrM	5414	13568
chrM	5415	13658
chrM	5416	13680
chrM	5417	13666
chrM	5418	13711
chrM	5419	13714
chrM	5420	13700
chrM	5421	13688
chrM	5422	13681
chrM	5423	13689
chrM	5424	13698
chrM	5425	13657
chrM	5426	13732
chrM	5427	13780
chrM	5428	13714
chrM	5429	13663
chrM	5430	13640
chrM	5431	13638
chrM	5432	13668
chrM	5433	13650
chrM	5434	13686
chrM	5435	13704
chrM	5436	13655
chrM	5437	13602
chrM	5438	13560
chrM	5439	13549
chrM	5440	13523
chrM	5441	13515
chrM	5442	13446
chrM	5443	13538
chrM	5444	13597
chrM	5445	13651
chrM	5446	13663
chrM	5447	13608
chrM	5448	13595
chrM	5449	13530
chrM	5450	13473
chrM	5451	13451
chrM	5452	13338
chrM	5453	13243
chrM	5454	13150
chrM	5455	13060
chrM	5456	13027
chrM	5457	12991
chrM	5458	12938
chrM	5459	12960
chrM	5460	12975
chrM	5461	12947
chrM	5462	12953
chrM	5463	13004
chrM	5464	13005
chrM	5465	13062
chrM	5466	13056
chrM	5467	13006
chrM	5468	12949
chrM	5469	12937
chrM	5470	12893
chrM	5471	12804
chrM	5472	12763
chrM	5473	12757
chrM	5474	12820
chrM	5475	12813
chrM	5476	12740
chrM	5477	12663
chrM	5478	12688
chrM	5479	12653
chrM	5480	12601
chrM	5481	12555
chrM	5482	12489
chrM	5483	12429
chrM	5484	12360
chrM	5485	12179
chrM	5486	12148
chrM	5487	12084
chrM	5488	12067
chrM	5489	11958
chrM	5490	11893
chrM	5491	11886
chrM	5492	11867
chrM	5493	11903
chrM	5494	11805
chrM	5495	11749
chrM	5496	11712
chrM	5497	11647
chrM	5498	11588
chrM	5499	11522
chrM	5500	11497
chrM	5501	11440
chrM	5502	11379
chrM	5503	11245
chrM	5504	11278
chrM	5505	11370
chrM	5506	11433
chrM	5507	11473
chrM	5508	11450
chrM	5509	11443
chrM	5510	11488
chrM	5511	11454
chrM	5512	11470
chrM	5513	11507
chrM	5514	11530
chrM	5515	11574
chrM	5516	11513
chrM	5517	11471
chrM	5518	11457
chrM	5519	11462
chrM	5520	11435
chrM	5521	11442
chrM	5522	11460
chrM	5523	11545
chrM	5524	11622
chrM	5525	11618
chrM	5526	11547
chrM	5527	11507
chrM	5528	11499
chrM	5529	11528
chrM	5530	11520
chrM	5531	11515
chrM	5532	11472
chrM	5533	11449
chrM	5534	11427
chrM	5535	11382
chrM	5536	11346
chrM	5537	11363
chrM	5538	11319
chrM	5539	11177
chrM	5540	11152
chrM	5541	11161
chrM	5542	11147
chrM	5543	11125
chrM	5544	11080
chrM	5545	11074
chrM	5546	11096
chrM	5547	11045
chrM	5548	10997
chrM	5549	10970
chrM	5550	10853
chrM	5551	10807
chrM	5552	10782
chrM	5553	10704
chrM	5554	10657
chrM	5555	10672
chrM	5556	10736
chrM	5557	10789
chrM	5558	10821
chrM	5559	10777
chrM	5560	10719
chrM	5561	10600
chrM	5562	10608
chrM	5563	10673
chrM	5564	10718
chrM	5565	10753
chrM	5566	10762
chrM	5567	10743
chrM	5568	10735
chrM	5569	10654
chrM	5570	10573
chrM	5571	10537
chrM	5572	10543
chrM	5573	10613
chrM	5574	10662
chrM	5575	10677
chrM	5576	10689
chrM	5577	10669
chrM	5578	10632
chrM	5579	10559
chrM	5580	10454
chrM	5581	10385
chrM	5582	10448
chrM	5583	10535
chrM	5584	10521
chrM	5585	10430
chrM	5586	10409
chrM	5587	10446
chrM	5588	10548
chrM	5589	10608
chrM	5590	10666
chrM	5591	10698
chrM	5592	10762
chrM	5593	10886
chrM	5594	10935
chrM	5595	10965
chrM	5596	10970
chrM	5597	10980
chrM	5598	10942
chrM	5599	10990
chrM	5600	10969
chrM	5601	10998
chrM	5602	10965
chrM	5603	10952
chrM	5604	10900
chrM	5605	10873
chrM	5606	10872
chrM	5607	10879
chrM	5608	10802
chrM	5609	10679
chrM	5610	10621
chrM	5611	10574
chrM	5612	10547
chrM	5613	10490
chrM	5614	10454
chrM	5615	10474
chrM	5616	10457
chrM	5617	10470
chrM	5618	10453
chrM	5619	10425
chrM	5620	10412
chrM	5621	10396
chrM	5622	10412
chrM	5623	10425
chrM	5624	10528
chrM	5625	10572
chrM	5626	10529
chrM	5627	10505
chrM	5628	10512
chrM	5629	10508
chrM	5630	10514
chrM	5631	10531
chrM	5632	10606
chrM	5633	10640
chrM	5634	10631
chrM	5635	10600
chrM	5636	10583
chrM	5637	10582
chrM	5638	10658
chrM	5639	10632
chrM	5640	10599
chrM	5641	10580
chrM	5642	10591
chrM	5643	10613
chrM	5644	10611
chrM	5645	10580
chrM	5646	10639
chrM	5647	10585
chrM	5648	10554
chrM	5649	10501
chrM	5650	10418
chrM	5651	10455
chrM	5652	10506
chrM	5653	10493
chrM	5654	10461
chrM	5655	10422
chrM	5656	10365
chrM	5657	10279
chrM	5658	10196
chrM	5659	10145
chrM	5660	10118
chrM	5661	10114
chrM	5662	10136
chrM	5663	10141
chrM	5664	10183
chrM	5665	10207
chrM	5666	10222
chrM	5667	10204
chrM	5668	10236
chrM	5669	10197
chrM	5670	10196
chrM	5671	10189
chrM	5672	10154
chrM	5673	10208
chrM	5674	10297
chrM	5675	10336
chrM	5676	10357
chrM	5677	10464
chrM	5678	10461
chrM	5679	10424
chrM	5680	10349
chrM	5681	10269
chrM	5682	10307
chrM	5683	10332
chrM	5684	10343
chrM	5685	10341
chrM	5686	10303
chrM	5687	10245
chrM	5688	10223
chrM	5689	10224
chrM	5690	10233
chrM	5691	10191
chrM	5692	10205
chrM	5693	10147
chrM	5694	10116
chrM	5695	10099
chrM	5696	10137
chrM	5697	10093
chrM	5698	10046
chrM	5699	9977
chrM	5700	9896
chrM	5701	9894
chrM	5702	9868
chrM	5703	9819
chrM	5704	9863
chrM	5705	9892
chrM	5706	9919
chrM	5707	9943
chrM	5708	9870
chrM	5709	9833
chrM	5710	9817
chrM	5711	9835
chrM	5712	9820
chrM	5713	9768
chrM	5714	9752
chrM	5715	9777
chrM	5716	9745
chrM	5717	9710
chrM	5718	9675
chrM	5719	9723
chrM	5720	9688
chrM	5721	9695
chrM	5722	9674
chrM	5723	9610
chrM	5724	9601
chrM	5725	9584
chrM	5726	9610
chrM	5727	9567
chrM	5728	9429
chrM	5729	9363
chrM	5730	9295
chrM	5731	9239
chrM	5732	9174
chrM	5733	9145
chrM	5734	9077
chrM	5735	9003
chrM	5736	8909
chrM	5737	8909
chrM	5738	8943
chrM	5739	8963
chrM	5740	8973
chrM	5741	8999
chrM	5742	9004
chrM	5743	9010
chrM	5744	8850
chrM	5745	9067
chrM	5746	9148
chrM	5747	9197
chrM	5748	9183
chrM	5749	9165
chrM	5750	9165
chrM	5751	9239
chrM	5752	9284
chrM	5753	9369
chrM	5754	9422
chrM	5755	9452
chrM	5756	9488
chrM	5757	9502
chrM	5758	9514
chrM	5759	9453
chrM	5760	9397
chrM	5761	9478
chrM	5762	9479
chrM	5763	9442
chrM	5764	9449
chrM	5765	9535
chrM	5766	9582
chrM	5767	9497
chrM	5768	9559
chrM	5769	9573
chrM	5770	9543
chrM	5771	9566
chrM	5772	9659
chrM	5773	9590
chrM	5774	9603
chrM	5775	9646
chrM	5776	9703
chrM	5777	9738
chrM	5778	9756
chrM	5779	9728
chrM	5780	9719
chrM	5781	9667
chrM	5782	9697
chrM	5783	9731
chrM	5784	9757
chrM	5785	9802
chrM	5786	9807
chrM	5787	9778
chrM	5788	9816
chrM	5789	9840
chrM	5790	9866
chrM	5791	9860
chrM	5792	9849
chrM	5793	9834
chrM	5794	9798
chrM	5795	9829
chrM	5796	9831
chrM	5797	9823
chrM	5798	9793
chrM	5799	9713
chrM	5800	9662
chrM	5801	9648
chrM	5802	9673
chrM	5803	9698
chrM	5804	9796
chrM	5805	9820
chrM	5806	9821
chrM	5807	9820
chrM	5808	9760
chrM	5809	9713
chrM	5810	9674
chrM	5811	9608
chrM	5812	9527
chrM	5813	9528
chrM	5814	9573
chrM	5815	9630
chrM	5816	9645
chrM	5817	9603
chrM	5818	9539
chrM	5819	9528
chrM	5820	9604
chrM	5821	9666
chrM	5822	9724
chrM	5823	9762
chrM	5824	9793
chrM	5825	9787
chrM	5826	9858
chrM	5827	9840
chrM	5828	9884
chrM	5829	9931
chrM	5830	9961
chrM	5831	9996
chrM	5832	10106
chrM	5833	10119
chrM	5834	10208
chrM	5835	10206
chrM	5836	10231
chrM	5837	10323
chrM	5838	10424
chrM	5839	10342
chrM	5840	10302
chrM	5841	10269
chrM	5842	10217
chrM	5843	10172
chrM	5844	10144
chrM	5845	10161
chrM	5846	10193
chrM	5847	10235
chrM	5848	10235
chrM	5849	10209
chrM	5850	10189
chrM	5851	10219
chrM	5852	10224
chrM	5853	10211
chrM	5854	10174
chrM	5855	10183
chrM	5856	10202
chrM	5857	10233
chrM	5858	10247
chrM	5859	10248
chrM	5860	10211
chrM	5861	10142
chrM	5862	10121
chrM	5863	10148
chrM	5864	10141
chrM	5865	10150
chrM	5866	10173
chrM	5867	10203
chrM	5868	10201
chrM	5869	10177
chrM	5870	10195
chrM	5871	10335
chrM	5872	10355
chrM	5873	10425
chrM	5874	10461
chrM	5875	10492
chrM	5876	10505
chrM	5877	10523
chrM	5878	10585
chrM	5879	10602
chrM	5880	10599
chrM	5881	10610
chrM	5882	10693
chrM	5883	10687
chrM	5884	10658
chrM	5885	10609
chrM	5886	10562
chrM	5887	10552
chrM	5888	10513
chrM	5889	10479
chrM	5890	10470
chrM	5891	10474
chrM	5892	10506
chrM	5893	10430
chrM	5894	10405
chrM	5895	10373
chrM	5896	10274
chrM	5897	10256
chrM	5898	10237
chrM	5899	10207
chrM	5900	10121
chrM	5901	10091
chrM	5902	10095
chrM	5903	10108
chrM	5904	10172
chrM	5905	10170
chrM	5906	10127
chrM	5907	10001
chrM	5908	10026
chrM	5909	10101
chrM	5910	10065
chrM	5911	10033
chrM	5912	9988
chrM	5913	9914
chrM	5914	9866
chrM	5915	9815
chrM	5916	9761
chrM	5917	9734
chrM	5918	9729
chrM	5919	9696
chrM	5920	9671
chrM	5921	9683
chrM	5922	9645
chrM	5923	9618
chrM	5924	9682
chrM	5925	9705
chrM	5926	9774
chrM	5927	9779
chrM	5928	9803
chrM	5929	9840
chrM	5930	9912
chrM	5931	9943
chrM	5932	9964
chrM	5933	9928
chrM	5934	9924
chrM	5935	9949
chrM	5936	10004
chrM	5937	9983
chrM	5938	9931
chrM	5939	9829
chrM	5940	9801
chrM	5941	9842
chrM	5942	9996
chrM	5943	10064
chrM	5944	10055
chrM	5945	10042
chrM	5946	10039
chrM	5947	10105
chrM	5948	10254
chrM	5949	10289
chrM	5950	10320
chrM	5951	10293
chrM	5952	10270
chrM	5953	10277
chrM	5954	10269
chrM	5955	10208
chrM	5956	10217
chrM	5957	10207
chrM	5958	10188
chrM	5959	10165
chrM	5960	10137
chrM	5961	10079
chrM	5962	10077
chrM	5963	10047
chrM	5964	10093
chrM	5965	10103
chrM	5966	10187
chrM	5967	10113
chrM	5968	10103
chrM	5969	10008
chrM	5970	10001
chrM	5971	9966
chrM	5972	9903
chrM	5973	9837
chrM	5974	9859
chrM	5975	9867
chrM	5976	9868
chrM	5977	9921
chrM	5978	9929
chrM	5979	9886
chrM	5980	9878
chrM	5981	9810
chrM	5982	9765
chrM	5983	9838
chrM	5984	9974
chrM	5985	10080
chrM	5986	10090
chrM	5987	10072
chrM	5988	10077
chrM	5989	10073
chrM	5990	10050
chrM	5991	10027
chrM	5992	10027
chrM	5993	10094
chrM	5994	10136
chrM	5995	10137
chrM	5996	10116
chrM	5997	10078
chrM	5998	10074
chrM	5999	10106
chrM	6000	10184
